<?xml version="1.0" standalone="no"?>
<!DOCTYPE svg PUBLIC "-//W3C//DTD SVG 1.1//EN" "http://www.w3.org/Graphics/SVG/1.1/DTD/svg11.dtd" >
<svg>
<metadata>
Created by FontForge 20110222 at Thu Mar 13 11:03:38 2014
 By Orthosie Webhosting
Digitized data copyright The Monotype Corporation 1991-1995. All rights reserved. Gill Sans is a trademark of The Monotype Corporation which may be registered in certain jurisdictions.
</metadata>
<defs>
<font id="GillSansMTItalic" horiz-adv-x="961" >
  <font-face 
    font-family="GillSansMTItalic"
    font-weight="400"
    font-style="italic"
    font-stretch="normal"
    units-per-em="2048"
    panose-1="2 11 5 2 2 1 4 9 2 3"
    ascent="1638"
    descent="-410"
    x-height="920"
    cap-height="1397"
    bbox="-412 -574 2066 1888"
    underline-thickness="102"
    underline-position="-103"
    slope="-8"
    unicode-range="U+0020-FB02"
  />
<missing-glyph horiz-adv-x="2048" 
d="M256 0v1536h1536v-1536h-1536zM384 128h1280v1280h-1280v-1280z" />
    <glyph glyph-name=".notdef" horiz-adv-x="2048" 
d="M256 0v1536h1536v-1536h-1536zM384 128h1280v1280h-1280v-1280z" />
    <glyph glyph-name=".null" horiz-adv-x="0" 
 />
    <glyph glyph-name="nonmarkingreturn" horiz-adv-x="569" 
 />
    <glyph glyph-name="space" unicode=" " horiz-adv-x="569" 
 />
    <glyph glyph-name="exclam" unicode="!" horiz-adv-x="512" 
d="M193 340q26 258 41 581t38.5 408.5t112.5 85.5q82 0 82 -121q0 -71 -68 -366l-131 -588h-75zM86 90q0 49 35 84t84 35t84 -35t35 -84t-35 -84t-84 -35t-84 35t-35 84z" />
    <glyph glyph-name="quotedbl" unicode="&#x22;" horiz-adv-x="725" 
d="M508 1466h197v-239l-48 -281h-102l-47 281v239zM176 1466h197v-239l-47 -281h-103l-47 281v239z" />
    <glyph glyph-name="numbersign" unicode="#" horiz-adv-x="1196" 
d="M4 871v123h326l86 403h121l-86 -403h421l84 403h123l-86 -403h199v-123h-223l-76 -371h299v-123h-324l-84 -399h-122l86 399h-424l-84 -399h-123l84 399h-197v123h223l78 371h-301zM848 871h-422l-78 -371h424z" />
    <glyph glyph-name="dollar" unicode="$" horiz-adv-x="1024" 
d="M989 1237l-26 -184q-125 80 -267 108l-61 -438q311 -163 311 -381q0 -139 -112 -243.5t-304 -116.5l-28 -207h-152l29 207q-178 25 -297 110l29 201q126 -87 295 -131l59 438q-163 91 -235 178.5t-72 200.5q0 139 112.5 240.5t298.5 113.5l11 82h151l-10 -82
q140 -16 268 -96zM496 809l49 358q-96 -15 -149.5 -60t-53.5 -106q0 -62 38 -104t116 -88zM606 520l-53 -370q95 9 153 59.5t58 116.5q0 109 -158 194z" />
    <glyph glyph-name="percent" unicode="%" horiz-adv-x="1450" 
d="M430 1415q128 0 219.5 -90.5t91.5 -220.5q0 -125 -93 -218t-218 -93q-129 0 -220 92.5t-91 218.5q0 131 90 221t221 90zM430 942q67 0 114.5 48t47.5 114q0 68 -47.5 115t-114.5 47q-68 0 -115 -46.5t-47 -115.5q0 -63 49 -112.5t113 -49.5zM1292 1415l-917 -1433h-156
l920 1433h153zM1081 606q129 0 220.5 -90.5t91.5 -220.5q0 -125 -93 -218t-219 -93q-129 0 -220 92.5t-91 218.5q0 131 90 221t221 90zM1081 133q68 0 115 48t47 114q0 68 -47.5 115t-114.5 47q-68 0 -114.5 -46.5t-46.5 -115.5q0 -63 49 -112.5t112 -49.5z" />
    <glyph glyph-name="ampersand" unicode="&#x26;" horiz-adv-x="1409" 
d="M1157 702h180q-124 -305 -284 -458q121 -115 252 -115q29 0 45 6l-68 -145q-16 -8 -49 -8q-67 0 -152.5 42.5t-146.5 110.5q-206 -153 -432 -153q-185 0 -291.5 109.5t-106.5 281.5q0 119 87 232.5t239 180.5q-78 152 -78 295q0 141 94 237.5t232 96.5q113 0 192.5 -82.5
t79.5 -202.5q0 -234 -297 -401q84 -148 281 -377q142 143 223 350zM575 866q93 47 145 116.5t52 137.5q0 62 -33.5 101t-87.5 39q-55 0 -94 -53.5t-39 -131.5q0 -89 57 -209zM510 643q-217 -121 -217 -272q0 -104 70.5 -171t181.5 -67q121 0 270 109q-190 217 -305 401z" />
    <glyph glyph-name="quotesingle" unicode="'" horiz-adv-x="385" 
d="M176 1466h197v-239l-47 -281h-103l-47 281v239z" />
    <glyph glyph-name="parenleft" unicode="(" horiz-adv-x="598" 
d="M586 1415h98q-94 -113 -211.5 -353t-158 -499t-40.5 -399q0 -355 127 -635h-86q-93 176 -149.5 389.5t-56.5 392.5q0 272 109.5 530t367.5 574z" />
    <glyph glyph-name="parenright" unicode=")" horiz-adv-x="598" 
d="M-14 -471h-99q95 113 212 353t157.5 499t40.5 399q0 355 -127 635h86q93 -176 150 -389.5t57 -392.5q0 -272 -110 -530t-367 -574z" />
    <glyph glyph-name="asterisk" unicode="*" horiz-adv-x="918" 
d="M596 1362l-51 -260q28 -6 41 -21l172 164q51 51 94 51q28 0 47 -21t19 -52q0 -56 -66 -80l-254 -92q4 -12 4 -26q0 -12 -4 -21l207 -76q113 -42 113 -103q0 -23 -21 -45t-45 -22q-46 0 -119 71l-147 146q-21 -21 -41 -21l47 -252q4 -22 4 -43q0 -90 -68 -90q-70 0 -70 97
q0 26 7 57l49 231q-18 1 -39 21l-160 -148q-74 -67 -118 -67q-23 0 -42.5 21t-19.5 46q0 65 111 103l215 74q-3 12 -3 25q0 12 3 22l-232 86q-90 32 -90 82q0 33 21.5 56t50.5 23q33 0 96 -59l168 -158q10 16 39 21l-47 244q-6 29 -6 53q0 88 67 88q72 0 72 -88
q0 -19 -4 -37z" />
    <glyph glyph-name="plus" unicode="+" horiz-adv-x="1196" 
d="M545 1206h168v-399h399v-168h-399v-399h-168v399h-400v168h400v399z" />
    <glyph glyph-name="comma" unicode="," horiz-adv-x="406" 
d="M-49 -295l12 90q135 44 135 176q-80 36 -80 105q0 53 36.5 87t92.5 34q55 0 92 -46.5t37 -115.5q0 -113 -87 -204t-238 -126z" />
    <glyph glyph-name="hyphen" unicode="-" horiz-adv-x="512" 
d="M512 543l-25 -174h-487l25 174h487z" />
    <glyph glyph-name="period" unicode="." horiz-adv-x="406" 
d="M33 90q0 49 35 84t84 35q48 0 83 -35t35 -84t-35 -84t-83 -35q-49 0 -84 35t-35 84z" />
    <glyph glyph-name="slash" unicode="/" horiz-adv-x="575" 
d="M57 -18l402 1433h143l-401 -1433h-144z" />
    <glyph glyph-name="zero" unicode="0" horiz-adv-x="1067" 
d="M668 1415q172 0 265 -129t93 -377q0 -368 -153.5 -647.5t-399.5 -279.5q-369 0 -369 497q0 348 151 642t413 294zM471 147q138 0 252.5 239.5t114.5 545.5q0 317 -179 317q-131 0 -246.5 -239t-115.5 -527q0 -336 174 -336z" />
    <glyph glyph-name="one" unicode="1" horiz-adv-x="1067" 
d="M766 1415l-221 -1415h-185l224 1415h182z" />
    <glyph glyph-name="two" unicode="2" horiz-adv-x="1067" 
d="M244 1120l26 199q161 96 316 96q151 0 244.5 -92t93.5 -242q0 -151 -132.5 -360.5t-416.5 -548.5h532l-24 -172h-848q408 499 559 729.5t151 337.5q0 81 -52 127.5t-144 46.5q-141 0 -305 -121z" />
    <glyph glyph-name="three" unicode="3" horiz-adv-x="1067" 
d="M264 1161l27 193q142 61 289 61q169 0 271.5 -99t102.5 -263q0 -233 -272 -334q188 -80 188 -316q0 -163 -127.5 -292t-357.5 -129q-164 0 -336 77l25 166q154 -78 303 -78q135 0 218 71t83 185q0 113 -76 177.5t-178 56.5l22 166q151 11 233.5 84t82.5 164
q0 89 -60 143.5t-159 54.5q-143 0 -279 -88z" />
    <glyph glyph-name="four" unicode="4" horiz-adv-x="1067" 
d="M932 1415l-129 -835h201l-21 -150h-207l-67 -430h-179l74 430h-524v80l741 905h111zM315 580h312l82 485z" />
    <glyph glyph-name="five" unicode="5" horiz-adv-x="1067" 
d="M977 1397l-31 -172h-401l-56 -348q189 -11 294.5 -121t105.5 -285q0 -216 -146.5 -352.5t-377.5 -136.5q-196 0 -334 104l63 162q131 -101 281 -101q141 0 231 90.5t90 231.5q0 110 -78.5 176t-211.5 66q-50 0 -123 -17l125 703h569z" />
    <glyph glyph-name="six" unicode="6" horiz-adv-x="1067" 
d="M848 1397l-402 -586l5 -4q61 47 180 47q150 0 240 -95.5t90 -254.5q0 -204 -147.5 -363t-334.5 -159q-171 0 -269.5 113.5t-98.5 312.5q0 99 54.5 234.5t137.5 256.5l340 498h205zM483 156q114 0 204.5 101t90.5 232q0 88 -53 143.5t-135 55.5q-120 0 -208.5 -90
t-88.5 -211q0 -102 53.5 -166.5t136.5 -64.5z" />
    <glyph glyph-name="seven" unicode="7" horiz-adv-x="1067" 
d="M1081 1397l-653 -1415h-190l573 1243h-563l24 172h809z" />
    <glyph glyph-name="eight" unicode="8" horiz-adv-x="1067" 
d="M770 729q184 -78 184 -297q0 -189 -138.5 -319.5t-340.5 -130.5q-176 0 -284.5 107t-108.5 280q0 292 299 383q-158 93 -158 274q0 159 120 274t286 115q171 0 275 -98t104 -260q0 -110 -62.5 -198t-175.5 -130zM596 817q93 0 161 70.5t68 167.5q0 86 -53 140t-137 54
q-95 0 -162 -69.5t-67 -165.5q0 -88 52.5 -142.5t137.5 -54.5zM487 147q117 0 201 83.5t84 197.5q0 104 -61.5 163.5t-169.5 59.5q-111 0 -194 -85.5t-83 -198.5q0 -95 63.5 -157.5t159.5 -62.5z" />
    <glyph glyph-name="nine" unicode="9" horiz-adv-x="1067" 
d="M264 -18l414 602l-4 4q-85 -49 -178 -49q-147 0 -241.5 93.5t-94.5 237.5q0 221 146 383t343 162q158 0 260.5 -115t102.5 -292q0 -134 -48 -254t-151 -271l-344 -501h-205zM541 705q107 0 194.5 91t87.5 203q0 108 -51.5 172t-138.5 64q-113 0 -199 -100t-86 -232
q0 -198 193 -198z" />
    <glyph glyph-name="colon" unicode=":" horiz-adv-x="406" 
d="M147 829q0 49 35 84t84 35t84 -35t35 -84q0 -48 -35 -83t-84 -35t-84 35t-35 83zM33 90q0 49 35 84t84 35q48 0 83 -35t35 -84t-35 -84t-83 -35q-49 0 -84 35t-35 84z" />
    <glyph glyph-name="semicolon" unicode=";" horiz-adv-x="406" 
d="M147 829q0 49 35 84t84 35t84 -35t35 -84q0 -48 -35 -83t-84 -35t-84 35t-35 83zM-20 -295l12 90q135 44 135 176q-80 36 -80 105q0 53 36 87t93 34q55 0 92 -46.5t37 -115.5q0 -113 -87 -204t-238 -126z" />
    <glyph glyph-name="less" unicode="&#x3c;" horiz-adv-x="1196" 
d="M143 641v168l971 414v-179l-770 -319l770 -319v-179z" />
    <glyph glyph-name="equal" unicode="=" horiz-adv-x="1196" 
d="M145 1030h967v-168h-967v168zM145 584h967v-168h-967v168z" />
    <glyph glyph-name="greater" unicode="&#x3e;" horiz-adv-x="1196" 
d="M1114 641l-971 -414v179l770 319l-770 319v179l971 -414v-168z" />
    <glyph glyph-name="question" unicode="?" horiz-adv-x="725" 
d="M180 1135l29 202q121 78 229 78q135 0 217 -86.5t82 -228.5q0 -67 -30 -139t-159.5 -211.5t-172.5 -232t-53 -177.5h-113q0 117 41.5 239t155.5 258.5t133.5 179.5t19.5 79q0 69 -41.5 111t-109.5 42q-102 0 -228 -114zM123 90q0 49 35 84t84 35t83.5 -35t34.5 -84
t-34.5 -84t-83.5 -35t-84 35t-35 84z" />
    <glyph glyph-name="at" unicode="@" horiz-adv-x="2068" 
d="M1825 18h184q-273 -448 -887 -448q-471 0 -741 240.5t-270 658.5q0 414 263 719t726 305q372 0 615 -221.5t243 -558.5q0 -274 -186 -495.5t-412 -221.5q-199 0 -199 168q-145 -166 -303 -166q-157 0 -261.5 128t-104.5 325q0 239 162.5 435.5t357.5 196.5
q188 0 301 -184l35 156h180l-168 -772q-6 -25 -6 -45q0 -78 71 -78q94 0 238.5 158t144.5 397q0 270 -204 451.5t-512 181.5q-358 0 -595 -246t-237 -617q0 -363 227.5 -565.5t636.5 -202.5q481 0 701 301zM1024 940q-130 0 -237 -155.5t-107 -348.5q0 -131 61 -212t158 -81
q131 0 243.5 157.5t112.5 346.5q0 134 -63 213.5t-168 79.5z" />
    <glyph glyph-name="A" unicode="A" horiz-adv-x="1067" 
d="M721 1405l272 -1405h-172l-84 438h-438l-184 -438h-187l617 1405h176zM360 586h349l-107 573z" />
    <glyph glyph-name="B" unicode="B" horiz-adv-x="1044" 
d="M274 1397h205q215 0 329 -95t114 -260q0 -182 -193 -276q289 -100 289 -375q0 -174 -140 -282.5t-364 -108.5h-434zM436 1237l-55 -399h100q115 0 183.5 57.5t68.5 151.5q0 193 -239 193q-27 0 -58 -3zM358 682l-73 -526h211q161 0 247 63t86 180q0 119 -99 201t-236 82
h-136z" />
    <glyph glyph-name="C" unicode="C" horiz-adv-x="1130" 
d="M1188 1415l-37 -176h-102q-362 0 -556 -194t-194 -470q0 -190 100 -303.5t267 -113.5q86 0 202.5 46.5t214.5 125.5l-30 -226q-217 -122 -414 -122q-237 0 -388 162.5t-151 418.5q0 376 261.5 614t693.5 238h133z" />
    <glyph glyph-name="D" unicode="D" horiz-adv-x="1343" 
d="M80 0l199 1397h165q388 0 604 -186.5t216 -514.5q0 -316 -190 -506t-539 -190h-455zM442 1229l-149 -1063h168q239 0 354 57.5t182.5 181.5t67.5 297q0 248 -168 387.5t-391 139.5h-64z" />
    <glyph glyph-name="E" unicode="E" horiz-adv-x="1044" 
d="M1020 1397l-23 -166h-559l-61 -438h493l-22 -166h-496l-67 -461h735l-25 -166h-917l203 1397h739z" />
    <glyph glyph-name="F" unicode="F" horiz-adv-x="854" 
d="M932 1397l-23 -166h-485l-62 -438h447l-25 -166h-446l-88 -627h-187l203 1397h666z" />
    <glyph glyph-name="G" unicode="G" horiz-adv-x="1237" 
d="M1182 606l-72 -502q-227 -122 -451 -122q-269 0 -428 176.5t-159 437.5q0 332 249.5 575.5t708.5 243.5q90 0 242 -18l-23 -168q-165 18 -248 18q-343 0 -537 -193.5t-194 -451.5q0 -200 113 -326t291 -126q133 0 268 67l33 242h-199l21 147h385z" />
    <glyph glyph-name="H" unicode="H" horiz-adv-x="1430" 
d="M1407 1397l-197 -1397h-192l88 618h-756l-86 -618h-192l196 1397h191l-84 -604h755l84 604h193z" />
    <glyph glyph-name="I" unicode="I" horiz-adv-x="492" 
d="M469 1397l-197 -1397h-192l196 1397h193z" />
    <glyph glyph-name="J" unicode="J" horiz-adv-x="492" 
d="M475 1397l-211 -1499q-52 -369 -360 -369q-66 0 -133 12l-43 172q75 -16 135 -16q104 0 153.5 51.5t65.5 161.5l209 1487h184z" />
    <glyph glyph-name="K" unicode="K" horiz-adv-x="1153" 
d="M1174 1397l-644 -645l625 -752h-219l-576 731l-102 -731h-188l196 1397h189l-93 -598l5 -4l594 602h213z" />
    <glyph glyph-name="L" unicode="L" horiz-adv-x="854" 
d="M453 1397l-183 -1241h574l-23 -156h-749l196 1397h185z" />
    <glyph glyph-name="M" unicode="M" horiz-adv-x="1665" 
d="M1522 1397v-1397h-185l-1 1064l-564 -1064l-246 1069l-344 -1069h-184l461 1397h159l218 -946l501 946h185z" />
    <glyph glyph-name="N" unicode="N" horiz-adv-x="1409" 
d="M1389 1397l-197 -1397h-100l-695 1020l-143 -1020h-174l196 1397h95l698 -1028l145 1028h175z" />
    <glyph glyph-name="O" unicode="O" horiz-adv-x="1343" 
d="M782 1415q221 0 357.5 -161.5t136.5 -424.5q0 -364 -199 -605.5t-475 -241.5q-218 0 -358 165t-140 424q0 323 190.5 583.5t487.5 260.5zM606 150q194 0 337.5 208.5t143.5 503.5q0 180 -83 282.5t-224 102.5q-216 0 -351.5 -215.5t-135.5 -486.5q0 -183 85 -289
t228 -106z" />
    <glyph glyph-name="P" unicode="P" horiz-adv-x="918" 
d="M252 1397h240q216 0 334 -100t118 -296q0 -161 -117 -286t-329 -125h-168l-82 -590h-193zM420 1231l-66 -475h135q126 0 196.5 72.5t70.5 179.5q0 101 -66 162t-188 61h-82z" />
    <glyph glyph-name="Q" unicode="Q" horiz-adv-x="1343" 
d="M1276 -31h31q-10 -168 -99.5 -268t-236.5 -100q-156 0 -279 101t-184 298q-193 40 -298.5 199t-105.5 397q0 304 189.5 561.5t482.5 257.5q232 0 366 -157t134 -431q0 -309 -149.5 -535t-411.5 -292q34 -110 115 -170.5t180 -60.5q79 0 155 51t111 149zM618 168
q191 0 330 198t139 486q0 189 -80 292t-225 103q-223 0 -356 -221.5t-133 -474.5q0 -187 84 -285t241 -98z" />
    <glyph glyph-name="R" unicode="R" horiz-adv-x="1087" 
d="M270 1397h252q277 0 376 -110t99 -269q0 -123 -75 -214.5t-211 -127.5q62 -40 116 -154l250 -522h-200l-160 332q-76 157 -129 220.5t-162 63.5h-74l-86 -616h-192zM438 1231l-61 -449h98q159 0 241.5 66.5t82.5 179.5q0 203 -252 203h-109z" />
    <glyph glyph-name="S" unicode="S" horiz-adv-x="938" 
d="M899 1360l-27 -191q-112 74 -245 74q-112 0 -179 -58t-67 -153q0 -47 32 -99t187 -176.5t204.5 -218.5t49.5 -188q0 -150 -113 -259t-301 -109q-167 0 -338 100l29 205q191 -133 328 -133q74 0 140.5 48.5t66.5 131.5q0 53 -33.5 110t-189 184t-203 220.5t-47.5 185.5
q0 162 134 271.5t316 109.5q127 0 256 -55z" />
    <glyph glyph-name="T" unicode="T" horiz-adv-x="1044" 
d="M1141 1397l-25 -174h-393l-172 -1223h-193l172 1223h-393l25 174h979z" />
    <glyph glyph-name="U" unicode="U" horiz-adv-x="1300" 
d="M1311 1397l-121 -862q-38 -272 -187 -412.5t-395 -140.5q-218 0 -348.5 118t-130.5 315q0 41 6 83l127 899h184l-129 -914q-4 -29 -4 -56q0 -129 85 -203t220 -74q117 0 206.5 55.5t123.5 138.5t57 250l113 803h193z" />
    <glyph glyph-name="V" unicode="V" horiz-adv-x="1044" 
d="M1157 1397l-682 -1409h-72l-272 1409h180l187 -975l467 975h192z" />
    <glyph glyph-name="W" unicode="W" horiz-adv-x="1898" 
d="M2019 1397l-676 -1409h-71l-271 991l-475 -991h-73l-330 1409h176l231 -989l471 989h72l273 -1006l479 1006h194z" />
    <glyph glyph-name="X" unicode="X" horiz-adv-x="1366" 
d="M1440 1397l-598 -678l454 -719h-219l-362 575l-500 -575h-252l649 739l-413 658h211l331 -514l455 514h244z" />
    <glyph glyph-name="Y" unicode="Y" horiz-adv-x="1004" 
d="M1141 1397l-490 -701l-98 -696h-184l98 696l-328 701h195l237 -512l357 512h213z" />
    <glyph glyph-name="Z" unicode="Z" horiz-adv-x="1194" 
d="M1325 1397l-1018 -1223h828l-25 -174h-1176l1014 1223h-794l24 174h1147z" />
    <glyph glyph-name="bracketleft" unicode="[" horiz-adv-x="682" 
d="M770 1397l-18 -135h-265l-221 -1579h262l-18 -136h-432l260 1850h432z" />
    <glyph glyph-name="backslash" unicode="\" horiz-adv-x="575" 
d="M571 -18h-143l-401 1433h143z" />
    <glyph glyph-name="bracketright" unicode="]" horiz-adv-x="682" 
d="M-98 -453l18 136h264l222 1579h-263l19 135h432l-260 -1850h-432z" />
    <glyph glyph-name="asciicircum" unicode="^" 
d="M272 596h-184l354 801h146l354 -801h-182l-246 598z" />
    <glyph glyph-name="underscore" unicode="_" horiz-adv-x="1024" 
d="M-12 -154h1048v-102h-1048v102z" />
    <glyph glyph-name="grave" unicode="`" horiz-adv-x="682" 
d="M412 1372l139 -299h-115l-231 299h207z" />
    <glyph glyph-name="a" unicode="a" 
d="M913 920l-129 -920h-174l17 106l-4 5q-121 -129 -248 -129q-126 0 -214.5 106.5t-88.5 257.5q0 262 164.5 432t459.5 170q120 0 217 -28zM647 266l76 531q-28 2 -54 2q-205 0 -312 -130.5t-107 -291.5q0 -111 51.5 -181.5t130.5 -70.5q63 0 138 62.5t77 78.5z" />
    <glyph glyph-name="b" unicode="b" 
d="M430 1397l-74 -551q100 102 224 102q142 0 232.5 -116.5t90.5 -303.5q0 -244 -154 -400.5t-444 -156.5q-143 0 -244 15l191 1411h178zM250 115h96q176 0 277.5 113t101.5 304q0 125 -53 195t-146 70q-59 0 -124 -34.5t-72 -82.5z" />
    <glyph glyph-name="c" unicode="c" horiz-adv-x="788" 
d="M731 205l-20 -168q-120 -66 -256 -66q-185 0 -295.5 115.5t-110.5 308.5q0 233 167.5 393t428.5 160q66 0 158 -16l-23 -154q-65 15 -133 15q-181 0 -300.5 -116t-119.5 -271q0 -130 67.5 -204.5t184.5 -74.5q124 0 252 78z" />
    <glyph glyph-name="d" unicode="d" 
d="M979 1397l-197 -1397q-101 -29 -235 -29q-233 0 -358.5 111t-125.5 315q0 200 163 375.5t442 175.5h73l64 449h174zM627 119l94 684h-45q-195 0 -314.5 -118.5t-119.5 -283.5q0 -137 79 -211.5t226 -74.5q53 0 80 4z" />
    <glyph glyph-name="e" unicode="e" horiz-adv-x="897" 
d="M795 240l-25 -166q-140 -103 -307 -103q-174 0 -279.5 121.5t-105.5 323.5q0 225 126.5 378.5t309.5 153.5q140 0 233 -107.5t93 -277.5q0 -42 -6 -86h-574q-8 -46 -8 -88q0 -127 69.5 -200.5t174.5 -73.5q128 0 299 125zM287 598h385q0 96 -43.5 151.5t-122.5 55.5
q-150 0 -219 -207z" />
    <glyph glyph-name="f" unicode="f" horiz-adv-x="555" 
d="M588 920l-23 -154h-186l-148 -1153h-170l148 1153h-148l23 154h145q17 237 132.5 366t310.5 129q102 0 223 -43l-25 -172q-94 51 -180 51q-258 0 -289 -331h187z" />
    <glyph glyph-name="g" unicode="g" horiz-adv-x="874" 
d="M911 920l-18 -136h-178q61 -86 61 -182q0 -110 -49.5 -194t-121 -118.5t-184.5 -55t-143 -41t-30 -48.5q0 -21 26 -38.5t187.5 -56.5t226 -104.5t64.5 -154.5q0 -112 -106 -187t-269 -75q-175 0 -287.5 68t-112.5 170q0 133 265 190q-160 59 -160 162q0 53 49 99.5
t133 70.5q-166 79 -166 264q0 155 100.5 261t241.5 106h471zM430 379q79 0 129.5 64.5t50.5 150.5q0 81 -46.5 132.5t-117.5 51.5q-70 0 -126 -65t-56 -148q0 -81 47 -133.5t119 -52.5zM391 -340q89 0 142 32t53 83q0 50 -87 90.5t-118 40.5q-39 0 -138.5 -41.5t-99.5 -93.5
q0 -51 66.5 -81t181.5 -30z" />
    <glyph glyph-name="h" unicode="h" 
d="M414 1397l-88 -625l4 -4q155 180 319 180q101 0 157.5 -68.5t56.5 -184.5q0 -33 -5 -68l-88 -627h-174l88 637q3 24 3 45q0 135 -107 135q-78 0 -177 -100.5t-102 -118.5l-84 -598h-174l197 1397h174z" />
    <glyph glyph-name="i" unicode="i" horiz-adv-x="385" 
d="M195 1208q0 42 29.5 71.5t70.5 29.5t70.5 -29.5t29.5 -71.5q0 -41 -29.5 -70.5t-70.5 -29.5t-70.5 29.5t-29.5 70.5zM350 920l-129 -920h-174l129 920h174z" />
    <glyph glyph-name="j" unicode="j" horiz-adv-x="385" 
d="M293 1309q41 0 70.5 -29.5t29.5 -71.5q0 -41 -29.5 -70.5t-70.5 -29.5t-70.5 29.5t-29.5 70.5q0 42 29.5 71.5t70.5 29.5zM41 -137l135 1057h174l-141 -1106q-18 -139 -102 -212t-216 -73q-57 0 -102 18l23 154q43 -10 77 -10q130 0 152 172z" />
    <glyph glyph-name="k" unicode="k" horiz-adv-x="938" 
d="M418 1397l-126 -881l390 404h221l-422 -435l451 -485h-221l-424 467l-66 -467h-172l195 1397h174z" />
    <glyph glyph-name="l" unicode="l" horiz-adv-x="385" 
d="M418 1397l-197 -1397h-174l197 1397h174z" />
    <glyph glyph-name="m" unicode="m" horiz-adv-x="1516" 
d="M350 920l-24 -160q161 174 321 174q178 0 209 -207q168 207 344 207q98 0 157.5 -67t59.5 -188q0 -38 -6 -83l-84 -596h-174l86 604q5 31 5 58q0 135 -99 135q-25 0 -55 -10.5t-67 -34.5t-100.5 -87t-66.5 -81l-84 -584h-174l82 582q7 43 7 77q0 138 -109 138
q-69 0 -171.5 -96.5t-105.5 -116.5l-82 -584h-174l131 920h174z" />
    <glyph glyph-name="n" unicode="n" 
d="M365 920l-23 -162l4 -4q147 180 305 180q107 0 166 -78.5t59 -202.5q0 -35 -6 -73l-88 -580h-172l84 586q5 31 5 57q0 72 -30 110t-75 38q-26 0 -58.5 -13t-69.5 -40t-91.5 -82t-57.5 -70l-84 -586h-172l129 920h175z" />
    <glyph glyph-name="o" unicode="o" horiz-adv-x="918" 
d="M514 948q155 0 248.5 -109.5t93.5 -291.5q0 -252 -126 -414t-310 -162q-162 0 -254 109t-92 303q0 241 127 403t313 162zM514 811q-107 0 -184.5 -132.5t-77.5 -313.5q0 -108 46.5 -176t115.5 -68q109 0 186.5 124t77.5 312q0 116 -45 185t-119 69z" />
    <glyph glyph-name="p" unicode="p" horiz-adv-x="1004" 
d="M428 1153l-33 -233q70 28 156 28q162 0 271.5 -122t109.5 -306q0 -219 -148.5 -384t-406.5 -165h-115l-61 -442h-174l163 1163q-56 -40 -101.5 -104t-51.5 -64q-8 0 -8 13q0 46 52.5 132.5t125.5 145.5l47 338h174zM377 791l-94 -672h84q177 0 282 119.5t105 281.5
q0 140 -74 218.5t-188 78.5q-61 0 -115 -26z" />
    <glyph glyph-name="q" unicode="q" 
d="M909 948l-198 -1419h-174l69 498q-113 -56 -190 -56q-157 0 -255 114.5t-98 299.5q0 241 170.5 402t481.5 161h194zM625 156l90 649q-223 11 -348 -107.5t-125 -322.5q0 -118 65.5 -189t173.5 -71q57 0 144 41z" />
    <glyph glyph-name="r" unicode="r" horiz-adv-x="641" 
d="M379 920l-27 -175l4 -4q82 117 130 155t114 38q41 0 76 -14v-197q-55 31 -107 31q-51 0 -91 -25.5t-97 -109t-59 -101.5l-72 -518h-174l129 920h174z" />
    <glyph glyph-name="s" unicode="s" horiz-adv-x="725" 
d="M662 852v-182q-159 121 -277 121q-53 0 -89 -28.5t-36 -68.5q0 -26 22.5 -55.5t142 -109.5t161 -147t41.5 -136q0 -121 -80.5 -198t-204.5 -77q-153 0 -319 121l30 168q172 -137 283 -137q52 0 85.5 29t33.5 73q0 33 -24.5 67.5t-142.5 116.5t-156 146t-38 129
q0 119 79 191.5t210 72.5q138 0 279 -96z" />
    <glyph glyph-name="t" unicode="t" horiz-adv-x="575" 
d="M584 920l-19 -136h-184l-88 -503q-7 -38 -7 -64q0 -90 97 -90q72 0 168 55l-10 -170q-96 -41 -191 -41q-113 0 -178.5 57.5t-65.5 151.5q0 23 5 47l96 557h-162l21 136h167l35 188h172l-32 -188h176z" />
    <glyph glyph-name="u" unicode="u" 
d="M898 920l-131 -920h-172l16 156q-159 -170 -303 -170q-93 0 -157.5 66.5t-64.5 189.5q0 35 5 71l86 607h174l-86 -607q-4 -30 -4 -56q0 -138 102 -138q107 0 277 203l84 598h174z" />
    <glyph glyph-name="v" unicode="v" horiz-adv-x="768" 
d="M842 920l-473 -938h-86l-209 938h172l125 -584l295 584h176z" />
    <glyph glyph-name="w" unicode="w" horiz-adv-x="1260" 
d="M1325 920l-473 -938h-82l-123 602l-311 -602h-80l-190 938h170l114 -619l299 619h86l115 -619l305 619h170z" />
    <glyph glyph-name="x" unicode="x" horiz-adv-x="874" 
d="M907 920l-370 -455l233 -465h-186l-168 344l-266 -344h-213l401 487l-217 433h186l146 -310l239 310h215z" />
    <glyph glyph-name="y" unicode="y" horiz-adv-x="768" 
d="M819 920l-659 -1391h-185l250 526l-178 865h174l127 -633l289 633h182z" />
    <glyph glyph-name="z" unicode="z" horiz-adv-x="938" 
d="M915 920l-610 -766h535l-33 -154h-834l600 766h-464l20 154h786z" />
    <glyph glyph-name="braceleft" unicode="{" horiz-adv-x="682" 
d="M57 449v163q109 0 158 73.5t49 260.5v180q0 196 69.5 280.5t221.5 84.5h80v-156h-31q-110 0 -142 -40t-32 -167v-147q0 -211 -47 -307.5t-160 -143.5q113 -46 160 -142.5t47 -307.5v-148q0 -126 32 -166t142 -40h31v-156h-80q-152 0 -221.5 84.5t-69.5 279.5v181
q0 187 -49 260.5t-158 73.5z" />
    <glyph glyph-name="bar" unicode="|" horiz-adv-x="532" 
d="M221 -471v1868h156v-1868h-156z" />
    <glyph glyph-name="braceright" unicode="}" horiz-adv-x="682" 
d="M625 612v-163q-109 0 -158 -73.5t-49 -260.5v-181q0 -195 -69.5 -279.5t-221.5 -84.5h-80v156h31q110 0 142 40t32 166v148q0 211 47 307.5t160 142.5q-113 47 -160 143.5t-47 307.5v147q0 127 -32 167t-142 40h-31v156h80q152 0 221.5 -84.5t69.5 -280.5v-180
q0 -187 49 -260.5t158 -73.5z" />
    <glyph glyph-name="asciitilde" unicode="~" horiz-adv-x="1196" 
d="M80 406v169q157 132 305 132q86 0 258 -78t246 -78q117 0 287 137v-170q-156 -131 -299 -131q-84 0 -258.5 78t-247.5 78q-117 0 -291 -137z" />
    <glyph glyph-name="nbspace" unicode="&#xa0;" horiz-adv-x="569" 
 />
    <glyph glyph-name="exclamdown" unicode="&#xa1;" horiz-adv-x="512" 
d="M428 854q0 -49 -35 -84t-84 -35t-84 35t-35 84t35 84t84 35t84 -35t35 -84zM322 604q-27 -257 -42 -580.5t-38.5 -409t-112.5 -85.5q-82 0 -82 121q0 71 68 366l131 588h76z" />
    <glyph glyph-name="cent" unicode="&#xa2;" horiz-adv-x="788" 
d="M807 930l-23 -152q-75 15 -129 15l-204 -666q154 -14 292 94l-26 -184q-105 -67 -239 -67q-44 0 -75 12l-114 -367h-94l118 385q-256 95 -256 406q0 215 152.5 370t400.5 168l109 361h100l-112 -361q72 -7 100 -14zM362 152l197 632q-151 -33 -237 -136.5t-86 -241.5
q0 -176 126 -254z" />
    <glyph glyph-name="sterling" unicode="&#xa3;" 
d="M1036 1391l-24 -172q-56 22 -105 22q-113 0 -203 -116t-174 -357h224l-49 -166h-226l-139 -409q48 4 57 4q49 0 144 -17.5t164 -17.5q115 0 231 55l-27 -190q-95 -45 -227 -45q-48 0 -168 17t-195 17q-73 0 -161 -16l-74 -16h-10l215 618h-180l49 166h182
q111 328 247 487.5t318 159.5q59 0 131 -24z" />
    <glyph glyph-name="currency" unicode="&#xa4;" horiz-adv-x="1130" 
d="M948 463l137 -137l-116 -117l-138 137q-106 -72 -235 -72t-236 72l-137 -137l-117 117l138 137q-72 105 -72 235q0 126 72 236l-138 137l117 117l137 -137q105 71 236 71q126 0 235 -71l138 137l116 -117l-137 -137q72 -103 72 -236q0 -129 -72 -235zM856 698
q0 107 -76.5 183.5t-183.5 76.5t-183.5 -76.5t-76.5 -183.5t76.5 -183.5t183.5 -76.5t183.5 76.5t76.5 183.5z" />
    <glyph glyph-name="yen" unicode="&#xa5;" horiz-adv-x="1130" 
d="M1108 750l-29 -136h-405l-33 -151h408l-29 -135h-406l-69 -328h-180l67 328h-405l30 135h404l31 151h-408l29 136h342l-273 716h183l247 -694l478 694h216l-532 -716h334z" />
    <glyph glyph-name="brokenbar" unicode="&#xa6;" horiz-adv-x="532" 
d="M221 700v697h156v-697h-156zM221 -471v831h156v-831h-156z" />
    <glyph glyph-name="section" unicode="&#xa7;" horiz-adv-x="1004" 
d="M946 1114l-164 -59q23 40 23 84q0 58 -38 95.5t-97 37.5q-80 0 -136.5 -49t-56.5 -121q0 -45 30 -95t176.5 -172t193.5 -215.5t47 -185.5q0 -99 -75 -193t-202 -147q105 -135 105 -248q0 -138 -103 -227.5t-264 -89.5q-151 0 -242.5 75t-89.5 218l158 88q-5 -30 -5 -58
q0 -180 179 -180q81 0 134.5 44t53.5 114q0 49 -34.5 105.5t-189.5 188t-202 217t-47 165.5q0 115 83 208.5t222 125.5q-110 116 -110 241q0 147 108.5 240.5t280.5 93.5q122 0 195 -66.5t73 -173.5q0 -30 -6 -61zM522 209q104 26 163.5 85t59.5 128q0 130 -202 295
q-122 -6 -193.5 -63.5t-71.5 -141.5q0 -82 87.5 -159.5t156.5 -143.5z" />
    <glyph glyph-name="dieresis" unicode="&#xa8;" horiz-adv-x="682" 
d="M539 1214q0 39 28 67t66 28t66 -28t28 -67q0 -38 -28 -66t-66 -28t-66 28t-28 66zM172 1214q0 39 28 67t66 28t66 -28t28 -67q0 -38 -28 -66t-66 -28t-66 28t-28 66z" />
    <glyph glyph-name="copyright" unicode="&#xa9;" horiz-adv-x="1516" 
d="M2 737q0 312 221 533t533 221t533.5 -221t221.5 -533t-221.5 -533.5t-533.5 -221.5t-533 221.5t-221 533.5zM1386 737q0 260 -185 444.5t-445 184.5t-444.5 -184.5t-184.5 -444.5t184.5 -445.5t444.5 -185.5t445 185.5t185 445.5zM999 614l123 -36q-69 -273 -372 -273
q-178 0 -283 119.5t-105 323.5q0 186 110.5 298.5t293.5 112.5q269 0 342 -235l-119 -29q-61 154 -233 154q-116 0 -186 -88t-70 -234q0 -143 68.5 -224t189.5 -81q86 0 152.5 51.5t88.5 140.5z" />
    <glyph glyph-name="ordfeminine" unicode="&#xaa;" horiz-adv-x="641" 
d="M670 1397l-86 -553h-135l6 47q-71 -53 -144 -53q-87 0 -146 62.5t-59 154.5q0 161 113.5 260.5t298.5 99.5q75 0 152 -18zM473 1010l47 305q-125 0 -199.5 -64t-74.5 -180q0 -61 29 -101t73 -40q55 0 125 80z" />
    <glyph glyph-name="guillemotleft" unicode="&#xab;" horiz-adv-x="897" 
d="M913 920l-354 -482l172 -438h-139l-180 459l344 461h157zM516 920l-354 -482l172 -438h-139l-181 459l344 461h158z" />
    <glyph glyph-name="logicalnot" unicode="&#xac;" horiz-adv-x="1196" 
d="M1112 258h-168v436h-801v168h969v-604z" />
    <glyph glyph-name="sfthyphen" unicode="&#xad;" horiz-adv-x="512" 
d="M512 543l-24 -175h-488l25 175h487z" />
    <glyph glyph-name="registered" unicode="&#xae;" horiz-adv-x="1516" 
d="M2 737q0 312 221 533t533 221t533.5 -221t221.5 -533t-221.5 -533.5t-533.5 -221.5t-533 221.5t-221 533.5zM1386 737q0 260 -185 444.5t-445 184.5t-444.5 -184.5t-184.5 -444.5t184.5 -445.5t444.5 -185.5t445 185.5t185 445.5zM454 319v811h358q128 0 198.5 -63
t70.5 -149q0 -96 -62.5 -161t-169.5 -73v-4q76 -22 189 -203l98 -158h-160l-71 127q-70 123 -114 170.5t-128 47.5h-78v-345h-131zM585 776h188q168 0 168 123q0 54 -40 87.5t-105 33.5h-211v-244z" />
    <glyph glyph-name="overscore" unicode="&#xaf;" horiz-adv-x="1024" 
d="M266 1496v102h1155v-102h-1155z" />
    <glyph glyph-name="degree" unicode="&#xb0;" horiz-adv-x="811" 
d="M127 1214q0 115 81 196t195 81q115 0 196 -81t81 -196q0 -114 -81 -195t-196 -81q-114 0 -195 81t-81 195zM573 1214q0 70 -49.5 119t-120.5 49q-70 0 -118.5 -48.5t-48.5 -119.5q0 -70 48.5 -120t118.5 -50q71 0 120.5 50t49.5 120z" />
    <glyph glyph-name="plusminus" unicode="&#xb1;" horiz-adv-x="1196" 
d="M545 1206h168v-399h399v-168h-399v-399h-168v399h-400v168h400v399zM145 168h967v-168h-967v168z" />
    <glyph glyph-name="twosuperior" unicode="&#xb2;" horiz-adv-x="662" 
d="M188 1239l19 123q96 53 196 53q94 0 153.5 -48.5t59.5 -123.5q0 -85 -79.5 -193t-237.5 -272h307l-14 -98h-531q428 443 428 547q0 84 -106 84q-86 0 -195 -72z" />
    <glyph glyph-name="threesuperior" unicode="&#xb3;" horiz-adv-x="662" 
d="M219 1262l17 118q89 35 182 35q106 0 169.5 -52.5t63.5 -139.5q0 -116 -151 -170q102 -45 102 -162q0 -94 -84.5 -157.5t-212.5 -63.5q-102 0 -211 43l15 100q102 -45 192 -45q77 0 121.5 35t44.5 94q0 111 -154 111l15 92q178 18 178 125q0 41 -31 66.5t-82 25.5
q-85 0 -174 -55z" />
    <glyph glyph-name="acute" unicode="&#xb4;" horiz-adv-x="682" 
d="M463 1372h207l-232 -299h-114z" />
    <glyph glyph-name="mu1" unicode="&#xb5;" horiz-adv-x="1130" 
d="M276 920h175l-119 -566q-8 -40 -8 -75q0 -83 43.5 -130t119.5 -47q208 0 261 254l116 564h174l-190 -920h-158l8 66q-106 -95 -225 -95q-120 0 -199 111l-88 -436h-172z" />
    <glyph glyph-name="paragraph" unicode="&#xb6;" horiz-adv-x="1110" 
d="M446 -408v994q-192 12 -297.5 124t-105.5 292q0 197 122.5 305t348.5 108h633v-166h-146v-1657h-165v1657h-224v-1657h-166z" />
    <glyph glyph-name="middot" unicode="&#xb7;" horiz-adv-x="683" 
d="M676 586q-43 0 -74.5 32t-31.5 75q0 44 31.5 76t75.5 32t76 -31.5t32 -73.5q0 -45 -32.5 -77.5t-76.5 -32.5z" />
    <glyph glyph-name="cedilla" unicode="&#xb8;" horiz-adv-x="682" 
d="M369 14l-19 -49q94 -41 94 -139q0 -75 -62 -125.5t-155 -50.5q-66 0 -139 14l25 94q56 -14 86 -14q96 0 96 78q0 43 -55 72l57 120h72z" />
    <glyph glyph-name="onesuperior" unicode="&#xb9;" horiz-adv-x="662" 
d="M543 1415l-135 -735h-132l134 735h133z" />
    <glyph glyph-name="ordmasculine" unicode="&#xba;" horiz-adv-x="618" 
d="M418 1415q105 0 167 -66.5t62 -179.5q0 -149 -82 -245.5t-209 -96.5q-109 0 -171 66.5t-62 183.5q0 144 85 241t210 97zM354 922q63 0 109.5 74.5t46.5 179.5q0 145 -92 145q-69 0 -113.5 -74.5t-44.5 -197.5q0 -54 27.5 -90.5t66.5 -36.5z" />
    <glyph glyph-name="guillemotright" unicode="&#xbb;" horiz-adv-x="897" 
d="M348 0l354 481l-172 439h140l180 -459l-344 -461h-158zM-53 0l354 481l-172 439h139l181 -459l-345 -461h-157z" />
    <glyph glyph-name="onequarter" unicode="&#xbc;" horiz-adv-x="1729" 
d="M543 1415l-135 -735h-132l134 735h133zM1360 1415l-1110 -1470h-142l1112 1470h140zM1361 737l-76 -428h119l-12 -88h-123l-41 -221h-129l43 221h-309v47l444 469h84zM1011 309h147l50 211z" />
    <glyph glyph-name="onehalf" unicode="&#xbd;" horiz-adv-x="1729" 
d="M543 1415l-135 -735h-132l134 735h133zM1360 1415l-1110 -1470h-142l1112 1470h140zM1036 559l19 123q96 53 196 53q94 0 153.5 -48.5t59.5 -123.5q0 -85 -79.5 -193t-237.5 -272h307l-14 -98h-531q428 443 428 547q0 84 -106 84q-86 0 -195 -72z" />
    <glyph glyph-name="threequarters" unicode="&#xbe;" horiz-adv-x="1729" 
d="M275 1262l17 118q89 35 182 35q106 0 169.5 -52.5t63.5 -139.5q0 -116 -151 -170q102 -45 102 -162q0 -94 -84.5 -157.5t-212.5 -63.5q-102 0 -211 43l15 100q102 -45 192 -45q77 0 121.5 35t44.5 94q0 111 -154 111l15 92q178 18 178 125q0 41 -31 66.5t-82 25.5
q-85 0 -174 -55zM1496 1415l-1110 -1470h-142l1112 1470h140zM1497 737l-76 -428h119l-12 -88h-123l-41 -221h-129l43 221h-309v47l444 469h84zM1147 309h147l50 211z" />
    <glyph glyph-name="questiondown" unicode="&#xbf;" horiz-adv-x="725" 
d="M612 854q0 -49 -35 -84t-83 -35q-49 0 -84 35t-35 84t35 84t84 35q48 0 83 -35t35 -84zM555 -190l-29 -203q-121 -78 -229 -78q-135 0 -217 86.5t-82 228.5q0 67 30 139t159.5 211.5t172.5 232t54 177.5h112q0 -117 -41 -239t-155.5 -258.5t-134 -179.5t-19.5 -79
q0 -69 41.5 -111t110.5 -42q102 0 227 115z" />
    <glyph glyph-name="Agrave" unicode="&#xc0;" horiz-adv-x="1067" 
d="M721 1405l272 -1405h-172l-84 438h-438l-184 -438h-187l617 1405h176zM360 586h349l-107 573zM641 1819l139 -299h-115l-231 299h207z" />
    <glyph glyph-name="Aacute" unicode="&#xc1;" horiz-adv-x="1067" 
d="M721 1405l272 -1405h-172l-84 438h-438l-184 -438h-187l617 1405h176zM360 586h349l-107 573zM692 1819h207l-232 -299h-114z" />
    <glyph glyph-name="Acircumflex" unicode="&#xc2;" horiz-adv-x="1067" 
d="M721 1405l272 -1405h-172l-84 438h-438l-184 -438h-187l617 1405h176zM360 586h349l-107 573zM820 1819l153 -303h-84l-170 203l-274 -203h-96l268 303h203z" />
    <glyph glyph-name="Atilde" unicode="&#xc3;" horiz-adv-x="1067" 
d="M721 1405l272 -1405h-172l-84 438h-438l-184 -438h-187l617 1405h176zM360 586h349l-107 573zM901 1782h80q0 -99 -46.5 -166t-121.5 -67q-28 0 -138 39t-145 39q-61 0 -70 -76h-81q2 111 46.5 172t118.5 61q39 0 146 -38.5t141 -38.5q59 0 70 75z" />
    <glyph glyph-name="Adieresis" unicode="&#xc4;" horiz-adv-x="1067" 
d="M721 1405l272 -1405h-172l-84 438h-438l-184 -438h-187l617 1405h176zM360 586h349l-107 573zM768 1661q0 39 28 67t66 28t66 -28t28 -67q0 -38 -28 -66t-66 -28t-66 28t-28 66zM401 1661q0 39 28 67t66 28t66 -28t28 -67q0 -38 -28 -66t-66 -28t-66 28t-28 66z" />
    <glyph glyph-name="Aring" unicode="&#xc5;" horiz-adv-x="1067" 
d="M721 1405l272 -1405h-172l-84 438h-438l-184 -438h-187l617 1405h176zM360 586h349l-107 573zM485 1670q0 79 56.5 135.5t136.5 56.5q79 0 135.5 -56.5t56.5 -135.5q0 -80 -56.5 -136.5t-135.5 -56.5q-80 0 -136.5 56.5t-56.5 136.5zM790 1666q0 45 -33.5 78.5
t-78.5 33.5q-46 0 -79.5 -33.5t-33.5 -78.5q0 -46 33.5 -79.5t79.5 -33.5q45 0 78.5 33.5t33.5 79.5z" />
    <glyph glyph-name="AE" unicode="&#xc6;" horiz-adv-x="1706" 
d="M1640 1397l-22 -166h-535l-61 -432h502l-23 -166h-502l-65 -467h729l-23 -166h-913l88 633h-311l-348 -633h-199l797 1397h886zM901 1243h-63l-254 -463h252z" />
    <glyph glyph-name="Ccedilla" unicode="&#xc7;" horiz-adv-x="1130" 
d="M1083 330l-30 -226q-220 -125 -437 -122l-10 -27q94 -42 94 -139q0 -75 -62 -125.5t-155 -50.5q-66 0 -139 14l25 94q56 -14 86 -14q96 0 96 78q0 43 -55 71l51 107q-208 35 -327.5 192t-119.5 381q0 376 261.5 614t693.5 238h133l-37 -176h-102q-362 0 -556 -194
t-194 -470q0 -190 100 -303.5t267 -113.5q86 0 202.5 46.5t214.5 125.5z" />
    <glyph glyph-name="Egrave" unicode="&#xc8;" horiz-adv-x="1044" 
d="M1020 1397l-23 -166h-559l-61 -438h493l-22 -166h-496l-67 -461h735l-25 -166h-917l203 1397h739zM654 1819l139 -299h-115l-231 299h207z" />
    <glyph glyph-name="Eacute" unicode="&#xc9;" horiz-adv-x="1044" 
d="M1020 1397l-23 -166h-559l-61 -438h493l-22 -166h-496l-67 -461h735l-25 -166h-917l203 1397h739zM704 1819h207l-232 -299h-114z" />
    <glyph glyph-name="Ecircumflex" unicode="&#xca;" horiz-adv-x="1044" 
d="M1020 1397l-23 -166h-559l-61 -438h493l-22 -166h-496l-67 -461h735l-25 -166h-917l203 1397h739zM832 1819l153 -303h-84l-170 203l-274 -203h-96l268 303h203z" />
    <glyph glyph-name="Edieresis" unicode="&#xcb;" horiz-adv-x="1044" 
d="M1020 1397l-23 -166h-559l-61 -438h493l-22 -166h-496l-67 -461h735l-25 -166h-917l203 1397h739zM781 1661q0 39 28 67t66 28t66 -28t28 -67q0 -38 -28 -66t-66 -28t-66 28t-28 66zM414 1661q0 39 28 67t66 28t66 -28t28 -67q0 -38 -28 -66t-66 -28t-66 28t-28 66z" />
    <glyph glyph-name="Igrave" unicode="&#xcc;" horiz-adv-x="492" 
d="M469 1397l-197 -1397h-192l196 1397h193zM377 1819l139 -299h-115l-231 299h207z" />
    <glyph glyph-name="Iacute" unicode="&#xcd;" horiz-adv-x="492" 
d="M469 1397l-197 -1397h-192l196 1397h193zM428 1819h207l-232 -299h-114z" />
    <glyph glyph-name="Icircumflex" unicode="&#xce;" horiz-adv-x="492" 
d="M469 1397l-197 -1397h-192l196 1397h193zM555 1819l153 -303h-84l-170 203l-274 -203h-96l268 303h203z" />
    <glyph glyph-name="Idieresis" unicode="&#xcf;" horiz-adv-x="492" 
d="M469 1397l-197 -1397h-192l196 1397h193zM504 1661q0 39 28 67t66 28t66 -28t28 -67q0 -38 -28 -66t-66 -28t-66 28t-28 66zM137 1661q0 39 28 67t66 28t66 -28t28 -67q0 -38 -28 -66t-66 -28t-66 28t-28 66z" />
    <glyph glyph-name="Eth" unicode="&#xd0;" horiz-adv-x="1343" 
d="M279 1397h165q355 0 587.5 -171t232.5 -530q0 -317 -188 -506.5t-533 -189.5h-463l88 616h-162l25 166h159zM442 1231l-63 -449h319l-22 -166h-320l-63 -450h168q231 0 343.5 49t186.5 176.5t74 310.5q0 529 -623 529z" />
    <glyph glyph-name="Ntilde" unicode="&#xd1;" horiz-adv-x="1409" 
d="M1389 1397l-197 -1397h-100l-695 1020l-143 -1020h-174l196 1397h95l698 -1028l145 1028h175zM1096 1782h80q0 -99 -46.5 -166t-121.5 -67q-28 0 -138 39t-145 39q-61 0 -70 -76h-81q2 111 46.5 172t118.5 61q39 0 146 -38.5t141 -38.5q59 0 70 75z" />
    <glyph glyph-name="Ograve" unicode="&#xd2;" horiz-adv-x="1343" 
d="M782 1415q221 0 357.5 -161.5t136.5 -424.5q0 -364 -199 -605.5t-475 -241.5q-218 0 -358 165t-140 424q0 323 190.5 583.5t487.5 260.5zM606 150q194 0 337.5 208.5t143.5 503.5q0 180 -83 282.5t-224 102.5q-216 0 -351.5 -215.5t-135.5 -486.5q0 -183 85 -289
t228 -106zM803 1819l139 -299h-115l-231 299h207z" />
    <glyph glyph-name="Oacute" unicode="&#xd3;" horiz-adv-x="1343" 
d="M782 1415q221 0 357.5 -161.5t136.5 -424.5q0 -364 -199 -605.5t-475 -241.5q-218 0 -358 165t-140 424q0 323 190.5 583.5t487.5 260.5zM606 150q194 0 337.5 208.5t143.5 503.5q0 180 -83 282.5t-224 102.5q-216 0 -351.5 -215.5t-135.5 -486.5q0 -183 85 -289
t228 -106zM854 1819h207l-232 -299h-114z" />
    <glyph glyph-name="Ocircumflex" unicode="&#xd4;" horiz-adv-x="1343" 
d="M782 1415q221 0 357.5 -161.5t136.5 -424.5q0 -364 -199 -605.5t-475 -241.5q-218 0 -358 165t-140 424q0 323 190.5 583.5t487.5 260.5zM606 150q194 0 337.5 208.5t143.5 503.5q0 180 -83 282.5t-224 102.5q-216 0 -351.5 -215.5t-135.5 -486.5q0 -183 85 -289
t228 -106zM982 1819l153 -303h-84l-170 203l-274 -203h-96l268 303h203z" />
    <glyph glyph-name="Otilde" unicode="&#xd5;" horiz-adv-x="1343" 
d="M782 1415q221 0 357.5 -161.5t136.5 -424.5q0 -364 -199 -605.5t-475 -241.5q-218 0 -358 165t-140 424q0 323 190.5 583.5t487.5 260.5zM606 150q194 0 337.5 208.5t143.5 503.5q0 180 -83 282.5t-224 102.5q-216 0 -351.5 -215.5t-135.5 -486.5q0 -183 85 -289
t228 -106zM1063 1782h80q0 -99 -46.5 -166t-121.5 -67q-28 0 -138 39t-145 39q-61 0 -70 -76h-81q2 111 46.5 172t118.5 61q39 0 146 -38.5t141 -38.5q59 0 70 75z" />
    <glyph glyph-name="Odieresis" unicode="&#xd6;" horiz-adv-x="1343" 
d="M782 1415q221 0 357.5 -161.5t136.5 -424.5q0 -364 -199 -605.5t-475 -241.5q-218 0 -358 165t-140 424q0 323 190.5 583.5t487.5 260.5zM606 150q194 0 337.5 208.5t143.5 503.5q0 180 -83 282.5t-224 102.5q-216 0 -351.5 -215.5t-135.5 -486.5q0 -183 85 -289
t228 -106zM930 1661q0 39 28 67t66 28t66 -28t28 -67q0 -38 -28 -66t-66 -28t-66 28t-28 66zM563 1661q0 39 28 67t66 28t66 -28t28 -67q0 -38 -28 -66t-66 -28t-66 28t-28 66z" />
    <glyph glyph-name="multiply" unicode="&#xd7;" horiz-adv-x="1196" 
d="M193 410l315 315l-315 315l120 121l316 -315l313 313l121 -121l-313 -313l313 -313l-121 -121l-313 313l-316 -315z" />
    <glyph glyph-name="Oslash" unicode="&#xd8;" horiz-adv-x="1343" 
d="M1122 1274l133 160l78 -93l-139 -165q82 -134 82 -347q0 -364 -199 -605.5t-475 -241.5q-181 0 -311 116l-154 -182l-78 84l154 184q-109 163 -109 387q0 323 190.5 583.5t487.5 260.5q200 0 340 -141zM334 330l676 809q-75 108 -230 108q-216 0 -351.5 -215.5
t-135.5 -486.5q0 -106 41 -215zM1067 1024l-668 -795q74 -79 207 -79q194 0 337.5 208.5t143.5 503.5q0 89 -20 162z" />
    <glyph glyph-name="Ugrave" unicode="&#xd9;" horiz-adv-x="1300" 
d="M1311 1397l-121 -862q-38 -272 -187 -412.5t-395 -140.5q-218 0 -348.5 118t-130.5 315q0 41 6 83l127 899h184l-129 -914q-4 -29 -4 -56q0 -129 85 -203t220 -74q117 0 206.5 55.5t123.5 138.5t57 250l113 803h193zM787 1819l139 -299h-115l-231 299h207z" />
    <glyph glyph-name="Uacute" unicode="&#xda;" horiz-adv-x="1300" 
d="M1311 1397l-121 -862q-38 -272 -187 -412.5t-395 -140.5q-218 0 -348.5 118t-130.5 315q0 41 6 83l127 899h184l-129 -914q-4 -29 -4 -56q0 -129 85 -203t220 -74q117 0 206.5 55.5t123.5 138.5t57 250l113 803h193zM837 1819h207l-232 -299h-114z" />
    <glyph glyph-name="Ucircumflex" unicode="&#xdb;" horiz-adv-x="1300" 
d="M1311 1397l-121 -862q-38 -272 -187 -412.5t-395 -140.5q-218 0 -348.5 118t-130.5 315q0 41 6 83l127 899h184l-129 -914q-4 -29 -4 -56q0 -129 85 -203t220 -74q117 0 206.5 55.5t123.5 138.5t57 250l113 803h193zM965 1819l153 -303h-84l-170 203l-274 -203h-96
l268 303h203z" />
    <glyph glyph-name="Udieresis" unicode="&#xdc;" horiz-adv-x="1300" 
d="M1311 1397l-121 -862q-38 -272 -187 -412.5t-395 -140.5q-218 0 -348.5 118t-130.5 315q0 41 6 83l127 899h184l-129 -914q-4 -29 -4 -56q0 -129 85 -203t220 -74q117 0 206.5 55.5t123.5 138.5t57 250l113 803h193zM914 1661q0 39 28 67t66 28t66 -28t28 -67
q0 -38 -28 -66t-66 -28t-66 28t-28 66zM547 1661q0 39 28 67t66 28t66 -28t28 -67q0 -38 -28 -66t-66 -28t-66 28t-28 66z" />
    <glyph glyph-name="Yacute" unicode="&#xdd;" horiz-adv-x="1004" 
d="M1141 1397l-490 -701l-98 -696h-184l98 696l-328 701h195l237 -512l357 512h213zM684 1819h207l-232 -299h-114z" />
    <glyph glyph-name="Thorn" unicode="&#xde;" horiz-adv-x="918" 
d="M252 1397h190l-41 -295h50q215 0 333.5 -100.5t118.5 -294.5q0 -162 -117 -287t-329 -125h-168l-41 -295h-193zM379 936l-66 -475h136q126 0 197 73t71 179q0 100 -66.5 161.5t-189.5 61.5h-82z" />
    <glyph glyph-name="germandbls" unicode="&#xdf;" horiz-adv-x="1024" 
d="M84 0l129 920q71 495 412 495q148 0 244 -93t96 -239q0 -102 -62 -184t-166 -108v-5q92 -38 140.5 -130.5t48.5 -196.5q0 -200 -119 -344t-281 -144q-67 0 -108 29l18 131q33 -8 70 -8q109 0 177.5 96.5t68.5 253.5q0 246 -230 272l17 119q120 -11 195 53.5t75 163.5
q0 91 -50.5 147t-129.5 56q-105 0 -159.5 -81t-80.5 -263l-131 -940h-174z" />
    <glyph glyph-name="agrave" unicode="&#xe0;" 
d="M913 920l-129 -920h-174l17 106l-4 5q-121 -129 -248 -129q-126 0 -214.5 106.5t-88.5 257.5q0 262 164.5 432t459.5 170q120 0 217 -28zM647 266l76 531q-28 2 -54 2q-205 0 -312 -130.5t-107 -291.5q0 -111 51.5 -181.5t130.5 -70.5q63 0 138 62.5t77 78.5zM592 1372
l139 -299h-115l-231 299h207z" />
    <glyph glyph-name="aacute" unicode="&#xe1;" 
d="M913 920l-129 -920h-174l17 106l-4 5q-121 -129 -248 -129q-126 0 -214.5 106.5t-88.5 257.5q0 262 164.5 432t459.5 170q120 0 217 -28zM647 266l76 531q-28 2 -54 2q-205 0 -312 -130.5t-107 -291.5q0 -111 51.5 -181.5t130.5 -70.5q63 0 138 62.5t77 78.5zM602 1372
h207l-232 -299h-114z" />
    <glyph glyph-name="acircumflex" unicode="&#xe2;" 
d="M913 920l-129 -920h-174l17 106l-4 5q-121 -129 -248 -129q-126 0 -214.5 106.5t-88.5 257.5q0 262 164.5 432t459.5 170q120 0 217 -28zM647 266l76 531q-28 2 -54 2q-205 0 -312 -130.5t-107 -291.5q0 -111 51.5 -181.5t130.5 -70.5q63 0 138 62.5t77 78.5zM771 1372
l153 -303h-84l-170 203l-274 -203h-96l268 303h203z" />
    <glyph glyph-name="atilde" unicode="&#xe3;" 
d="M913 920l-129 -920h-174l17 106l-4 5q-121 -129 -248 -129q-126 0 -214.5 106.5t-88.5 257.5q0 262 164.5 432t459.5 170q120 0 217 -28zM647 266l76 531q-28 2 -54 2q-205 0 -312 -130.5t-107 -291.5q0 -111 51.5 -181.5t130.5 -70.5q63 0 138 62.5t77 78.5zM811 1335
h80q0 -99 -46.5 -166t-121.5 -67q-28 0 -138 39t-145 39q-61 0 -70 -76h-81q2 111 46.5 172t118.5 61q39 0 146 -38.5t141 -38.5q59 0 70 75z" />
    <glyph glyph-name="adieresis" unicode="&#xe4;" 
d="M913 920l-129 -920h-174l17 106l-4 5q-121 -129 -248 -129q-126 0 -214.5 106.5t-88.5 257.5q0 262 164.5 432t459.5 170q120 0 217 -28zM647 266l76 531q-28 2 -54 2q-205 0 -312 -130.5t-107 -291.5q0 -111 51.5 -181.5t130.5 -70.5q63 0 138 62.5t77 78.5zM719 1214
q0 39 28 67t66 28t66 -28t28 -67q0 -38 -28 -66t-66 -28t-66 28t-28 66zM352 1214q0 39 28 67t66 28t66 -28t28 -67q0 -38 -28 -66t-66 -28t-66 28t-28 66z" />
    <glyph glyph-name="aring" unicode="&#xe5;" 
d="M913 920l-129 -920h-174l17 106l-4 5q-121 -129 -248 -129q-126 0 -214.5 106.5t-88.5 257.5q0 262 164.5 432t459.5 170q120 0 217 -28zM647 266l76 531q-28 2 -54 2q-205 0 -312 -130.5t-107 -291.5q0 -111 51.5 -181.5t130.5 -70.5q63 0 138 62.5t77 78.5zM436 1223
q0 79 56.5 135.5t136.5 56.5q79 0 135.5 -56.5t56.5 -135.5q0 -80 -56.5 -136.5t-135.5 -56.5q-80 0 -136.5 56.5t-56.5 136.5zM741 1219q0 45 -33.5 78.5t-78.5 33.5q-46 0 -79.5 -33.5t-33.5 -78.5q0 -46 33.5 -79.5t79.5 -33.5q45 0 78.5 33.5t33.5 79.5z" />
    <glyph glyph-name="ae" unicode="&#xe6;" horiz-adv-x="1323" 
d="M1204 244l-24 -178q-149 -95 -299 -95q-211 0 -312 174q-155 -174 -309 -174q-107 0 -171 60t-64 159q0 252 510 345q18 60 18 111q0 70 -34 110.5t-93 40.5q-134 0 -303 -170l29 196q152 125 307 125q138 0 205 -125q119 125 284 125q133 0 220.5 -116.5t87.5 -287.5
q0 -52 -9 -104h-547q-12 -53 -12 -100q0 -106 60.5 -165.5t156.5 -59.5q131 0 299 129zM717 561h373q4 95 -41 169.5t-131 74.5q-79 0 -135.5 -63t-65.5 -181zM494 217l26 191q-151 -30 -234 -86t-83 -123q0 -37 26 -60.5t66 -23.5q91 0 199 102z" />
    <glyph glyph-name="ccedilla" unicode="&#xe7;" horiz-adv-x="788" 
d="M731 205l-20 -168q-119 -66 -269 -66l-10 -26q94 -42 94 -140q0 -74 -62 -125t-155 -51q-66 0 -139 15l25 94q56 -14 86 -14q96 0 96 77q0 44 -55 72l51 107q-154 24 -239 135.5t-85 279.5q0 233 167.5 393t428.5 160q66 0 158 -16l-23 -154q-65 15 -133 15
q-181 0 -300.5 -116t-119.5 -271q0 -130 67.5 -204.5t184.5 -74.5q124 0 252 78z" />
    <glyph glyph-name="egrave" unicode="&#xe8;" horiz-adv-x="897" 
d="M795 240l-25 -166q-140 -103 -307 -103q-174 0 -279.5 121.5t-105.5 323.5q0 225 126.5 378.5t309.5 153.5q140 0 233 -107.5t93 -277.5q0 -42 -6 -86h-574q-8 -46 -8 -88q0 -127 69.5 -200.5t174.5 -73.5q128 0 299 125zM287 598h385q0 96 -43.5 151.5t-122.5 55.5
q-150 0 -219 -207zM520 1372l139 -299h-115l-231 299h207z" />
    <glyph glyph-name="eacute" unicode="&#xe9;" horiz-adv-x="897" 
d="M795 240l-25 -166q-140 -103 -307 -103q-174 0 -279.5 121.5t-105.5 323.5q0 225 126.5 378.5t309.5 153.5q140 0 233 -107.5t93 -277.5q0 -42 -6 -86h-574q-8 -46 -8 -88q0 -127 69.5 -200.5t174.5 -73.5q128 0 299 125zM287 598h385q0 96 -43.5 151.5t-122.5 55.5
q-150 0 -219 -207zM571 1372h207l-232 -299h-114z" />
    <glyph glyph-name="ecircumflex" unicode="&#xea;" horiz-adv-x="897" 
d="M795 240l-25 -166q-140 -103 -307 -103q-174 0 -279.5 121.5t-105.5 323.5q0 225 126.5 378.5t309.5 153.5q140 0 233 -107.5t93 -277.5q0 -42 -6 -86h-574q-8 -46 -8 -88q0 -127 69.5 -200.5t174.5 -73.5q128 0 299 125zM287 598h385q0 96 -43.5 151.5t-122.5 55.5
q-150 0 -219 -207zM699 1372l153 -303h-84l-170 203l-274 -203h-96l268 303h203z" />
    <glyph glyph-name="edieresis" unicode="&#xeb;" horiz-adv-x="897" 
d="M795 240l-25 -166q-140 -103 -307 -103q-174 0 -279.5 121.5t-105.5 323.5q0 225 126.5 378.5t309.5 153.5q140 0 233 -107.5t93 -277.5q0 -42 -6 -86h-574q-8 -46 -8 -88q0 -127 69.5 -200.5t174.5 -73.5q128 0 299 125zM287 598h385q0 96 -43.5 151.5t-122.5 55.5
q-150 0 -219 -207zM648 1214q0 39 28 67t66 28t66 -28t28 -67q0 -38 -28 -66t-66 -28t-66 28t-28 66zM281 1214q0 39 28 67t66 28t66 -28t28 -67q0 -38 -28 -66t-66 -28t-66 28t-28 66z" />
    <glyph glyph-name="igrave" unicode="&#xec;" horiz-adv-x="385" 
d="M350 920l-129 -920h-174l129 920h174zM264 1372l139 -299h-115l-231 299h207z" />
    <glyph glyph-name="iacute" unicode="&#xed;" horiz-adv-x="385" 
d="M350 920l-129 -920h-174l129 920h174zM315 1372h207l-232 -299h-114z" />
    <glyph glyph-name="icircumflex" unicode="&#xee;" horiz-adv-x="385" 
d="M350 920l-129 -920h-174l129 920h174zM442 1372l153 -303h-84l-170 203l-274 -203h-96l268 303h203z" />
    <glyph glyph-name="idieresis" unicode="&#xef;" horiz-adv-x="385" 
d="M350 920l-129 -920h-174l129 920h174zM392 1214q0 39 28 67t66 28t66 -28t28 -67q0 -38 -28 -66t-66 -28t-66 28t-28 66zM25 1214q0 39 28 67t66 28t66 -28t28 -67q0 -38 -28 -66t-66 -28t-66 28t-28 66z" />
    <glyph glyph-name="eth" unicode="&#xf0;" horiz-adv-x="918" 
d="M895 1335l-182 -96q81 -121 125.5 -277.5t44.5 -295.5q0 -297 -135 -496t-340 -199q-155 0 -244.5 111t-89.5 303q0 236 127.5 399.5t308.5 163.5q104 0 170 -61l4 4q-26 133 -119 270l-186 -100l-51 82l176 92q-35 41 -72 65l107 115q64 -38 116 -100l191 100zM412 109
q112 0 201 141.5t89 300.5q0 260 -190 260q-108 0 -185 -135t-77 -318q0 -100 48 -174.5t114 -74.5z" />
    <glyph glyph-name="ntilde" unicode="&#xf1;" 
d="M365 920l-23 -162l4 -4q147 180 305 180q107 0 166 -78.5t59 -202.5q0 -35 -6 -73l-88 -580h-172l84 586q5 31 5 57q0 72 -30 110t-75 38q-26 0 -58.5 -13t-69.5 -40t-91.5 -82t-57.5 -70l-84 -586h-172l129 920h175zM811 1335h80q0 -99 -46.5 -166t-121.5 -67
q-28 0 -138 39t-145 39q-61 0 -70 -76h-81q2 111 46.5 172t118.5 61q39 0 146 -38.5t141 -38.5q59 0 70 75z" />
    <glyph glyph-name="ograve" unicode="&#xf2;" horiz-adv-x="918" 
d="M514 948q155 0 248.5 -109.5t93.5 -291.5q0 -252 -126 -414t-310 -162q-162 0 -254 109t-92 303q0 241 127 403t313 162zM514 811q-107 0 -184.5 -132.5t-77.5 -313.5q0 -108 46.5 -176t115.5 -68q109 0 186.5 124t77.5 312q0 116 -45 185t-119 69zM531 1372l139 -299
h-115l-231 299h207z" />
    <glyph glyph-name="oacute" unicode="&#xf3;" horiz-adv-x="918" 
d="M514 948q155 0 248.5 -109.5t93.5 -291.5q0 -252 -126 -414t-310 -162q-162 0 -254 109t-92 303q0 241 127 403t313 162zM514 811q-107 0 -184.5 -132.5t-77.5 -313.5q0 -108 46.5 -176t115.5 -68q109 0 186.5 124t77.5 312q0 116 -45 185t-119 69zM581 1372h207
l-232 -299h-114z" />
    <glyph glyph-name="ocircumflex" unicode="&#xf4;" horiz-adv-x="918" 
d="M514 948q155 0 248.5 -109.5t93.5 -291.5q0 -252 -126 -414t-310 -162q-162 0 -254 109t-92 303q0 241 127 403t313 162zM514 811q-107 0 -184.5 -132.5t-77.5 -313.5q0 -108 46.5 -176t115.5 -68q109 0 186.5 124t77.5 312q0 116 -45 185t-119 69zM709 1372l153 -303
h-84l-170 203l-274 -203h-96l268 303h203z" />
    <glyph glyph-name="otilde" unicode="&#xf5;" horiz-adv-x="918" 
d="M514 948q155 0 248.5 -109.5t93.5 -291.5q0 -252 -126 -414t-310 -162q-162 0 -254 109t-92 303q0 241 127 403t313 162zM514 811q-107 0 -184.5 -132.5t-77.5 -313.5q0 -108 46.5 -176t115.5 -68q109 0 186.5 124t77.5 312q0 116 -45 185t-119 69zM790 1335h80
q0 -99 -46.5 -166t-121.5 -67q-28 0 -138 39t-145 39q-61 0 -70 -76h-81q2 111 46.5 172t118.5 61q39 0 146 -38.5t141 -38.5q59 0 70 75z" />
    <glyph glyph-name="odieresis" unicode="&#xf6;" horiz-adv-x="918" 
d="M514 948q155 0 248.5 -109.5t93.5 -291.5q0 -252 -126 -414t-310 -162q-162 0 -254 109t-92 303q0 241 127 403t313 162zM514 811q-107 0 -184.5 -132.5t-77.5 -313.5q0 -108 46.5 -176t115.5 -68q109 0 186.5 124t77.5 312q0 116 -45 185t-119 69zM658 1214q0 39 28 67
t66 28t66 -28t28 -67q0 -38 -28 -66t-66 -28t-66 28t-28 66zM291 1214q0 39 28 67t66 28t66 -28t28 -67q0 -38 -28 -66t-66 -28t-66 28t-28 66z" />
    <glyph glyph-name="divide" unicode="&#xf7;" horiz-adv-x="1196" 
d="M520 1024q0 44 32 76.5t77 32.5q44 0 76 -32.5t32 -76.5t-32 -76.5t-76 -32.5q-45 0 -77 32.5t-32 76.5zM145 807h967v-168h-967v168zM520 422q0 44 32 76t77 32q44 0 76 -32t32 -76t-32 -76.5t-76 -32.5q-45 0 -77 32.5t-32 76.5z" />
    <glyph glyph-name="oslash" unicode="&#xf8;" horiz-adv-x="918" 
d="M881 879l-80 -95q55 -101 55 -237q0 -252 -126 -414t-310 -162q-148 0 -238 92l-84 -96l-61 68l90 104q-53 101 -53 244q0 241 127 403t313 162q142 0 231 -92l76 88zM260 293l377 438q-45 80 -123 80q-107 0 -184.5 -132.5t-77.5 -313.5q0 -42 8 -72zM672 633l-377 -438
q46 -74 119 -74q109 0 186.5 124t77.5 312q0 42 -6 76z" />
    <glyph glyph-name="ugrave" unicode="&#xf9;" 
d="M898 920l-131 -920h-172l16 156q-159 -170 -303 -170q-93 0 -157.5 66.5t-64.5 189.5q0 35 5 71l86 607h174l-86 -607q-4 -30 -4 -56q0 -138 102 -138q107 0 277 203l84 598h174zM554 1372l139 -299h-115l-231 299h207z" />
    <glyph glyph-name="uacute" unicode="&#xfa;" 
d="M898 920l-131 -920h-172l16 156q-159 -170 -303 -170q-93 0 -157.5 66.5t-64.5 189.5q0 35 5 71l86 607h174l-86 -607q-4 -30 -4 -56q0 -138 102 -138q107 0 277 203l84 598h174zM605 1372h207l-232 -299h-114z" />
    <glyph glyph-name="ucircumflex" unicode="&#xfb;" 
d="M898 920l-131 -920h-172l16 156q-159 -170 -303 -170q-93 0 -157.5 66.5t-64.5 189.5q0 35 5 71l86 607h174l-86 -607q-4 -30 -4 -56q0 -138 102 -138q107 0 277 203l84 598h174zM733 1372l153 -303h-84l-170 203l-274 -203h-96l268 303h203z" />
    <glyph glyph-name="udieresis" unicode="&#xfc;" 
d="M898 920l-131 -920h-172l16 156q-159 -170 -303 -170q-93 0 -157.5 66.5t-64.5 189.5q0 35 5 71l86 607h174l-86 -607q-4 -30 -4 -56q0 -138 102 -138q107 0 277 203l84 598h174zM681 1214q0 39 28 67t66 28t66 -28t28 -67q0 -38 -28 -66t-66 -28t-66 28t-28 66z
M314 1214q0 39 28 67t66 28t66 -28t28 -67q0 -38 -28 -66t-66 -28t-66 28t-28 66z" />
    <glyph glyph-name="yacute" unicode="&#xfd;" horiz-adv-x="768" 
d="M819 920l-659 -1391h-185l250 526l-178 865h174l127 -633l289 633h182zM506 1372h207l-232 -299h-114z" />
    <glyph glyph-name="thorn" unicode="&#xfe;" horiz-adv-x="1004" 
d="M27 -471l262 1868h174l-68 -477q70 28 156 28q162 0 271.5 -122t109.5 -306q0 -219 -148.5 -384t-406.5 -165h-115l-61 -442h-174zM377 791l-94 -672h84q177 0 282 119.5t105 281.5q0 140 -74 218.5t-188 78.5q-61 0 -115 -26z" />
    <glyph glyph-name="ydieresis" unicode="&#xff;" horiz-adv-x="768" 
d="M819 920l-659 -1391h-185l250 526l-178 865h174l127 -633l289 633h182zM582 1214q0 39 28 67t66 28t66 -28t28 -67q0 -38 -28 -66t-66 -28t-66 28t-28 66zM215 1214q0 39 28 67t66 28t66 -28t28 -67q0 -38 -28 -66t-66 -28t-66 28t-28 66z" />
    <glyph glyph-name="Abreve" unicode="&#x102;" horiz-adv-x="1067" 
d="M721 1405l272 -1405h-172l-84 438h-438l-184 -438h-187l617 1405h176zM360 586h349l-107 573zM852 1786h100q-79 -263 -289 -263q-105 0 -170 75t-59 188h96q3 -61 42.5 -96t99.5 -35q108 0 180 131z" />
    <glyph glyph-name="abreve" unicode="&#x103;" 
d="M913 920l-129 -920h-174l17 106l-4 5q-121 -129 -248 -129q-126 0 -214.5 106.5t-88.5 257.5q0 262 164.5 432t459.5 170q120 0 217 -28zM647 266l76 531q-28 2 -54 2q-205 0 -312 -130.5t-107 -291.5q0 -111 51.5 -181.5t130.5 -70.5q63 0 138 62.5t77 78.5zM808 1350
h100q-79 -263 -289 -263q-105 0 -170 75t-59 188h96q3 -61 42.5 -96t99.5 -35q108 0 180 131z" />
    <glyph glyph-name="Aogonek" unicode="&#x104;" horiz-adv-x="1067" 
d="M995 0q-51 -90 -51 -137q0 -43 35 -73t86 -30q29 0 78 13l-21 -140q-65 -16 -127 -16q-94 0 -159.5 55.5t-65.5 134.5q0 80 66 193h-15l-84 438h-438l-184 -438h-187l619 1405h176zM709 586l-109 573l-240 -573h349z" />
    <glyph glyph-name="aogonek" unicode="&#x105;" 
d="M762 0h-14q-52 -94 -52 -139t37 -73t84 -28q37 0 78 13l-18 -140q-78 -16 -125 -16q-101 0 -165.5 57.5t-64.5 130.5q0 86 66 195l16 113q-125 -125 -252 -125t-214 104.5t-87 247.5q0 275 169 441.5t452 166.5q129 0 221 -28zM627 270l75 527q-99 0 -122 -3
q-71 -10 -129 -38t-108.5 -81.5t-80 -131.5t-29.5 -174q0 -107 51.5 -175.5t127.5 -68.5q28 0 56 9t55 27t64.5 58t39.5 51z" />
    <glyph glyph-name="Cacute" unicode="&#x106;" horiz-adv-x="1130" 
d="M1188 1415l-37 -176h-102q-362 0 -556 -194t-194 -470q0 -190 100 -303.5t267 -113.5q86 0 202.5 46.5t214.5 125.5l-30 -226q-217 -122 -414 -122q-237 0 -388 162.5t-151 418.5q0 376 261.5 614t693.5 238h133zM903 1794h207l-232 -299h-114z" />
    <glyph glyph-name="cacute" unicode="&#x107;" horiz-adv-x="788" 
d="M731 205l-20 -168q-120 -66 -256 -66q-185 0 -295.5 115.5t-110.5 308.5q0 233 167.5 393t428.5 160q66 0 158 -16l-23 -154q-65 15 -133 15q-181 0 -300.5 -116t-119.5 -271q0 -130 67.5 -204.5t184.5 -74.5q124 0 252 78zM611 1371h207l-232 -299h-114z" />
    <glyph glyph-name="Ccaron" unicode="&#x10c;" horiz-adv-x="1130" 
d="M1188 1415l-37 -176h-102q-362 0 -556 -194t-194 -470q0 -190 100 -303.5t267 -113.5q86 0 202.5 46.5t214.5 125.5l-30 -226q-217 -122 -414 -122q-237 0 -388 162.5t-151 418.5q0 376 261.5 614t693.5 238h133zM856 1493l-153 303h84l170 -203l274 203h96l-268 -303
h-203z" />
    <glyph glyph-name="ccaron" unicode="&#x10d;" horiz-adv-x="788" 
d="M731 205l-20 -168q-120 -66 -256 -66q-185 0 -295.5 115.5t-110.5 308.5q0 233 167.5 393t428.5 160q66 0 158 -16l-23 -154q-65 15 -133 15q-181 0 -300.5 -116t-119.5 -271q0 -130 67.5 -204.5t184.5 -74.5q124 0 252 78zM501 1068l-153 303h84l170 -203l274 203h96
l-268 -303h-203z" />
    <glyph glyph-name="Dcaron" unicode="&#x10e;" horiz-adv-x="1343" 
d="M80 0l199 1397h165q388 0 604 -186.5t216 -514.5q0 -316 -190 -506t-539 -190h-455zM442 1229l-149 -1063h168q239 0 354 57.5t182.5 181.5t67.5 297q0 248 -168 387.5t-391 139.5h-64zM530 1493l-153 303h84l170 -203l274 203h96l-268 -303h-203z" />
    <glyph glyph-name="dcaron" unicode="&#x10f;" horiz-adv-x="1195" 
d="M979 1397l-197 -1397q-101 -29 -235 -29q-233 0 -358.5 111t-125.5 315q0 200 163 375.5t442 175.5h73l64 449h174zM627 119l94 684h-45q-195 0 -314.5 -118.5t-119.5 -283.5q0 -137 79 -211.5t226 -74.5q53 0 80 4zM1010 1009q135 44 135 176q-81 34 -81 108
q0 53 37.5 87t87.5 34q60 0 97 -46t37 -116q0 -109 -83.5 -203.5t-242.5 -130.5z" />
    <glyph glyph-name="Dslash" unicode="&#x110;" horiz-adv-x="1343" 
d="M279 1397h165q355 0 587.5 -171t232.5 -530q0 -317 -188 -506.5t-533 -189.5h-463l88 616h-162l25 166h159zM442 1231l-63 -449h319l-22 -166h-320l-63 -450h168q231 0 343.5 49t186.5 176.5t74 310.5q0 529 -623 529z" />
    <glyph glyph-name="dmacron" unicode="&#x111;" horiz-adv-x="960" 
d="M955 1208h174l-14 -106h-175l-159 -1102q-103 -28 -233 -28q-237 0 -360.5 113t-123.5 301q0 217 166.5 389t439.5 172l72 -1l22 156h-213l15 106h215l26 189h175zM722 802q-227 3 -351.5 -111t-124.5 -298q0 -128 77 -204.5t223 -76.5q41 0 79 7z" />
    <glyph glyph-name="Eogonek" unicode="&#x118;" horiz-adv-x="1044" 
d="M823 0q-51 -90 -51 -137q0 -43 35 -73t86 -30q29 0 78 13l-21 -140q-65 -16 -127 -16q-94 0 -159.5 55.5t-65.5 134.5q0 80 68 193h-588l205 1397h739l-27 -166h-555l-63 -434h495l-24 -170h-494l-71 -461h739l-27 -166h-172z" />
    <glyph glyph-name="eogonek" unicode="&#x119;" horiz-adv-x="896" 
d="M575 -15q-43 -65 -43 -128q0 -39 36.5 -67.5t84.5 -28.5q31 0 78 12l-19 -140q-65 -16 -126 -16q-102 0 -165 58.5t-63 130.5q0 78 53 169q-149 18 -241.5 136.5t-92.5 296.5q0 227 124 383.5t307 156.5q145 0 239 -106t94 -275q0 -45 -7 -90h-576q-4 -56 -4 -91
q0 -119 66.5 -195t159.5 -76q134 0 316 141l-26 -183q-86 -63 -195 -88zM286 599h386q0 103 -47 156t-117 53q-154 0 -222 -209z" />
    <glyph glyph-name="Ecaron" unicode="&#x11a;" horiz-adv-x="1044" 
d="M1020 1397l-23 -166h-559l-61 -438h493l-22 -166h-496l-67 -461h735l-25 -166h-917l203 1397h739zM580 1493l-153 303h84l170 -203l274 203h96l-268 -303h-203z" />
    <glyph glyph-name="ecaron" unicode="&#x11b;" horiz-adv-x="897" 
d="M795 240l-25 -166q-140 -103 -307 -103q-174 0 -279.5 121.5t-105.5 323.5q0 225 126.5 378.5t309.5 153.5q140 0 233 -107.5t93 -277.5q0 -42 -6 -86h-574q-8 -46 -8 -88q0 -127 69.5 -200.5t174.5 -73.5q128 0 299 125zM287 598h385q0 96 -43.5 151.5t-122.5 55.5
q-150 0 -219 -207zM431 1068l-153 303h84l170 -203l274 203h96l-268 -303h-203z" />
    <glyph glyph-name="dotlessi" unicode="&#x131;" horiz-adv-x="385" 
d="M350 920l-129 -920h-174l129 920h174z" />
    <glyph glyph-name="Lacute" unicode="&#x139;" horiz-adv-x="854" 
d="M453 1397l-183 -1241h574l-23 -156h-749l196 1397h185zM671 1794h207l-232 -299h-114z" />
    <glyph glyph-name="lacute" unicode="&#x13a;" horiz-adv-x="385" 
d="M418 1397l-197 -1397h-174l197 1397h174zM352 1797h207l-232 -299h-114z" />
    <glyph glyph-name="Lcaron" unicode="&#x13d;" horiz-adv-x="854" 
d="M453 1397l-183 -1241h574l-23 -156h-749l196 1397h185zM593 1493l-153 303h84l170 -203l274 203h96l-268 -303h-203z" />
    <glyph glyph-name="lcaron" unicode="&#x13e;" horiz-adv-x="619" 
d="M418 1397l-197 -1397h-174l197 1397h174zM442 1009q135 44 135 176q-81 34 -81 108q0 53 37.5 87t87.5 34q60 0 97 -46t37 -116q0 -109 -83.5 -203.5t-242.5 -130.5z" />
    <glyph glyph-name="Lslash" unicode="&#x141;" horiz-adv-x="854" 
d="M627 920l-277 -230l-80 -534h574l-23 -156h-749l75 543l-147 -123l27 182l147 125l94 670h185l-76 -523l276 232z" />
    <glyph glyph-name="lslash" unicode="&#x142;" horiz-adv-x="385" 
d="M471 795l-154 -115l-96 -680h-174l78 551l-150 -111l15 125l153 113l101 719h174l-82 -590l153 115z" />
    <glyph glyph-name="Nacute" unicode="&#x143;" horiz-adv-x="1409" 
d="M1389 1397l-197 -1397h-100l-695 1020l-143 -1020h-174l196 1397h95l698 -1028l145 1028h175zM950 1794h207l-232 -299h-114z" />
    <glyph glyph-name="nacute" unicode="&#x144;" 
d="M365 920l-23 -162l4 -4q147 180 305 180q107 0 166 -78.5t59 -202.5q0 -35 -6 -73l-88 -580h-172l84 586q5 31 5 57q0 72 -30 110t-75 38q-26 0 -58.5 -13t-69.5 -40t-91.5 -82t-57.5 -70l-84 -586h-172l129 920h175zM575 1371h207l-232 -299h-114z" />
    <glyph glyph-name="Ncaron" unicode="&#x147;" horiz-adv-x="1409" 
d="M1389 1397l-197 -1397h-100l-695 1020l-143 -1020h-174l196 1397h95l698 -1028l145 1028h175zM765 1493l-153 303h84l170 -203l274 203h96l-268 -303h-203z" />
    <glyph glyph-name="ncaron" unicode="&#x148;" 
d="M365 920l-23 -162l4 -4q147 180 305 180q107 0 166 -78.5t59 -202.5q0 -35 -6 -73l-88 -580h-172l84 586q5 31 5 57q0 72 -30 110t-75 38q-26 0 -58.5 -13t-69.5 -40t-91.5 -82t-57.5 -70l-84 -586h-172l129 920h175zM480 1068l-153 303h84l170 -203l274 203h96
l-268 -303h-203z" />
    <glyph glyph-name="Odblacute" unicode="&#x150;" horiz-adv-x="1343" 
d="M782 1415q221 0 357.5 -161.5t136.5 -424.5q0 -364 -199 -605.5t-475 -241.5q-218 0 -358 165t-140 424q0 323 190.5 583.5t487.5 260.5zM606 150q194 0 337.5 208.5t143.5 503.5q0 180 -83 282.5t-224 102.5q-216 0 -351.5 -215.5t-135.5 -486.5q0 -183 85 -289
t228 -106zM1054 1795h207l-232 -299h-114zM728 1795h207l-231 -299h-115z" />
    <glyph glyph-name="odblacute" unicode="&#x151;" horiz-adv-x="918" 
d="M514 948q155 0 248.5 -109.5t93.5 -291.5q0 -252 -126 -414t-310 -162q-162 0 -254 109t-92 303q0 241 127 403t313 162zM514 811q-107 0 -184.5 -132.5t-77.5 -313.5q0 -108 46.5 -176t115.5 -68q109 0 186.5 124t77.5 312q0 116 -45 185t-119 69zM761 1374h207
l-232 -299h-114zM435 1374h207l-231 -299h-115z" />
    <glyph glyph-name="OE" unicode="&#x152;" horiz-adv-x="1985" 
d="M1909 1397l-25 -166h-563l-59 -436h528l-25 -166h-528l-63 -463h751l-22 -166h-926l-244 -8q-307 0 -468 170t-161 459q0 167 93 358t266.5 304.5t408.5 113.5h1037zM1139 1231h-115l-180 2q-247 0 -394 -171t-147 -460q0 -210 101 -323t284 -113h301z" />
    <glyph glyph-name="oe" unicode="&#x153;" horiz-adv-x="1473" 
d="M1386 481h-567q-10 -52 -10 -100q0 -124 65.5 -195t184.5 -71q150 0 289 137l-29 -193q-131 -88 -272 -88q-221 0 -347 191q-139 -191 -299 -191q-162 0 -254 109t-92 303q0 241 127.5 403t313.5 162q179 0 272 -164q130 164 299 164q155 0 238.5 -103.5t83.5 -297.5
q0 -32 -3 -66zM407 120q98 0 165 131.5t67 330.5q0 107 -45 168t-98 61q-109 0 -186 -132t-77 -314q0 -104 44 -174.5t130 -70.5zM836 602h385q-6 209 -170 209t-215 -209z" />
    <glyph glyph-name="Racute" unicode="&#x154;" horiz-adv-x="1087" 
d="M270 1397h252q277 0 376 -110t99 -269q0 -123 -75 -214.5t-211 -127.5q62 -40 116 -154l250 -522h-200l-160 332q-76 157 -129 220.5t-162 63.5h-74l-86 -616h-192zM438 1231l-61 -449h98q159 0 241.5 66.5t82.5 179.5q0 203 -252 203h-109zM690 1794h207l-232 -299h-114
z" />
    <glyph glyph-name="racute" unicode="&#x155;" horiz-adv-x="641" 
d="M379 920l-27 -175l4 -4q82 117 130 155t114 38q41 0 76 -14v-197q-55 31 -107 31q-51 0 -91 -25.5t-97 -109t-59 -101.5l-72 -518h-174l129 920h174zM495 1371h207l-232 -299h-114z" />
    <glyph glyph-name="Rcaron" unicode="&#x158;" horiz-adv-x="1087" 
d="M270 1397h252q277 0 376 -110t99 -269q0 -123 -75 -214.5t-211 -127.5q62 -40 116 -154l250 -522h-200l-160 332q-76 157 -129 220.5t-162 63.5h-74l-86 -616h-192zM438 1231l-61 -449h98q159 0 241.5 66.5t82.5 179.5q0 203 -252 203h-109zM544 1493l-153 303h84
l170 -203l274 203h96l-268 -303h-203z" />
    <glyph glyph-name="rcaron" unicode="&#x159;" horiz-adv-x="641" 
d="M379 920l-27 -175l4 -4q82 117 130 155t114 38q41 0 76 -14v-197q-55 31 -107 31q-51 0 -91 -25.5t-97 -109t-59 -101.5l-72 -518h-174l129 920h174zM347 1068l-153 303h84l170 -203l274 203h96l-268 -303h-203z" />
    <glyph glyph-name="Sacute" unicode="&#x15a;" horiz-adv-x="938" 
d="M899 1360l-27 -191q-112 74 -245 74q-112 0 -179 -58t-67 -153q0 -47 32 -99t187 -176.5t204.5 -218.5t49.5 -188q0 -150 -113 -259t-301 -109q-167 0 -338 100l29 205q191 -133 328 -133q74 0 140.5 48.5t66.5 131.5q0 53 -33.5 110t-189 184t-203 220.5t-47.5 185.5
q0 162 134 271.5t316 109.5q127 0 256 -55zM717 1794h207l-232 -299h-114z" />
    <glyph glyph-name="sacute" unicode="&#x15b;" horiz-adv-x="725" 
d="M662 852v-182q-159 121 -277 121q-53 0 -89 -28.5t-36 -68.5q0 -26 22.5 -55.5t142 -109.5t161 -147t41.5 -136q0 -121 -80.5 -198t-204.5 -77q-153 0 -319 121l30 168q172 -137 283 -137q52 0 85.5 29t33.5 73q0 33 -24.5 67.5t-142.5 116.5t-156 146t-38 129
q0 119 79 191.5t210 72.5q138 0 279 -96zM463 1371h207l-232 -299h-114z" />
    <glyph glyph-name="Scommaaccent" unicode="&#x15e;" horiz-adv-x="938" 
d="M899 1360l-27 -191q-112 74 -245 74q-112 0 -179 -58t-67 -153q0 -47 32 -99t187 -176.5t204.5 -218.5t49.5 -188q0 -150 -113 -259t-301 -109q-167 0 -338 100l29 205q191 -133 328 -133q74 0 140.5 48.5t66.5 131.5q0 53 -33.5 110t-189 184t-203 220.5t-47.5 185.5
q0 162 134 271.5t316 109.5q127 0 256 -55zM263 -483q135 44 135 176q-81 34 -81 108q0 53 37.5 87t87.5 34q60 0 97 -46t37 -116q0 -109 -83.5 -203.5t-242.5 -130.5z" />
    <glyph glyph-name="scommaaccent" unicode="&#x15f;" horiz-adv-x="725" 
d="M662 852v-182q-159 121 -277 121q-53 0 -89 -28.5t-36 -68.5q0 -26 22.5 -55.5t142 -109.5t161 -147t41.5 -136q0 -121 -80.5 -198t-204.5 -77q-153 0 -319 121l30 168q172 -137 283 -137q52 0 85.5 29t33.5 73q0 33 -24.5 67.5t-142.5 116.5t-156 146t-38 129
q0 119 79 191.5t210 72.5q138 0 279 -96zM123 -483q135 44 135 176q-81 34 -81 108q0 53 37.5 87t87.5 34q60 0 97 -46t37 -116q0 -109 -83.5 -203.5t-242.5 -130.5z" />
    <glyph glyph-name="Scaron" unicode="&#x160;" horiz-adv-x="938" 
d="M899 1360l-27 -191q-112 74 -245 74q-112 0 -179 -58t-67 -153q0 -47 32 -99t187 -176.5t204.5 -218.5t49.5 -188q0 -150 -113 -259t-301 -109q-167 0 -338 100l29 205q191 -133 328 -133q74 0 140.5 48.5t66.5 131.5q0 53 -33.5 110t-189 184t-203 220.5t-47.5 185.5
q0 162 134 271.5t316 109.5q127 0 256 -55zM502 1516l-153 303h84l170 -203l274 203h96l-268 -303h-203z" />
    <glyph glyph-name="scaron" unicode="&#x161;" horiz-adv-x="725" 
d="M662 852v-182q-159 121 -277 121q-53 0 -89 -28.5t-36 -68.5q0 -26 22.5 -55.5t142 -109.5t161 -147t41.5 -136q0 -121 -80.5 -198t-204.5 -77q-153 0 -319 121l30 168q172 -137 283 -137q52 0 85.5 29t33.5 73q0 33 -24.5 67.5t-142.5 116.5t-156 146t-38 129
q0 119 79 191.5t210 72.5q138 0 279 -96zM313 1069l-153 303h84l170 -203l274 203h96l-268 -303h-203z" />
    <glyph glyph-name="Tcedilla" unicode="&#x162;" horiz-adv-x="1044" 
d="M1141 1397l-25 -174h-393l-172 -1223h-193l172 1223h-393l25 174h979zM247 -483q135 44 135 176q-81 34 -81 108q0 53 37.5 87t87.5 34q60 0 97 -46t37 -116q0 -109 -83.5 -203.5t-242.5 -130.5z" />
    <glyph glyph-name="tcedilla" unicode="&#x163;" horiz-adv-x="575" 
d="M584 920l-19 -136h-184l-88 -503q-7 -38 -7 -64q0 -90 97 -90q72 0 168 55l-10 -170q-96 -41 -191 -41q-113 0 -178.5 57.5t-65.5 151.5q0 23 5 47l96 557h-162l21 136h167l35 188h172l-32 -188h176zM118 -483q135 44 135 176q-81 34 -81 108q0 53 37.5 87t87.5 34
q60 0 97 -46t37 -116q0 -109 -83.5 -203.5t-242.5 -130.5z" />
    <glyph glyph-name="Tcaron" unicode="&#x164;" horiz-adv-x="1044" 
d="M1141 1397l-25 -174h-393l-172 -1223h-193l172 1223h-393l25 174h979zM593 1493l-153 303h84l170 -203l274 203h96l-268 -303h-203z" />
    <glyph glyph-name="tcaron" unicode="&#x165;" horiz-adv-x="853" 
d="M584 920l-19 -136h-184l-88 -503q-7 -38 -7 -64q0 -90 97 -90q72 0 168 55l-10 -170q-96 -41 -191 -41q-113 0 -178.5 57.5t-65.5 151.5q0 23 5 47l96 557h-162l21 136h167l35 188h172l-32 -188h176zM670 1005q135 44 135 176q-81 34 -81 108q0 53 37.5 87t87.5 34
q60 0 97 -46t37 -116q0 -109 -83.5 -203.5t-242.5 -130.5z" />
    <glyph glyph-name="Uring" unicode="&#x16e;" horiz-adv-x="1300" 
d="M1311 1397l-121 -862q-38 -272 -187 -412.5t-395 -140.5q-218 0 -348.5 118t-130.5 315q0 41 6 83l127 899h184l-129 -914q-4 -29 -4 -56q0 -129 85 -203t220 -74q117 0 206.5 55.5t123.5 138.5t57 250l113 803h193zM636 1696q0 79 56.5 135.5t136.5 56.5
q79 0 135.5 -56.5t56.5 -135.5q0 -80 -56.5 -136.5t-135.5 -56.5q-80 0 -136.5 56.5t-56.5 136.5zM941 1692q0 45 -33.5 78.5t-78.5 33.5q-46 0 -79.5 -33.5t-33.5 -78.5q0 -46 33.5 -79.5t79.5 -33.5q45 0 78.5 33.5t33.5 79.5z" />
    <glyph glyph-name="uring" unicode="&#x16f;" 
d="M898 920l-131 -920h-172l16 156q-159 -170 -303 -170q-93 0 -157.5 66.5t-64.5 189.5q0 35 5 71l86 607h174l-86 -607q-4 -30 -4 -56q0 -138 102 -138q107 0 277 203l84 598h174zM392 1224q0 79 56.5 135.5t136.5 56.5q79 0 135.5 -56.5t56.5 -135.5q0 -80 -56.5 -136.5
t-135.5 -56.5q-80 0 -136.5 56.5t-56.5 136.5zM697 1220q0 45 -33.5 78.5t-78.5 33.5q-46 0 -79.5 -33.5t-33.5 -78.5q0 -46 33.5 -79.5t79.5 -33.5q45 0 78.5 33.5t33.5 79.5z" />
    <glyph glyph-name="Udblacute" unicode="&#x170;" horiz-adv-x="1300" 
d="M1311 1397l-121 -862q-38 -272 -187 -412.5t-395 -140.5q-218 0 -348.5 118t-130.5 315q0 41 6 83l127 899h184l-129 -914q-4 -29 -4 -56q0 -129 85 -203t220 -74q117 0 206.5 55.5t123.5 138.5t57 250l113 803h193zM1081 1795h207l-232 -299h-114zM755 1795h207
l-231 -299h-115z" />
    <glyph glyph-name="udblacute" unicode="&#x171;" 
d="M898 920l-131 -920h-172l16 156q-159 -170 -303 -170q-93 0 -157.5 66.5t-64.5 189.5q0 35 5 71l86 607h174l-86 -607q-4 -30 -4 -56q0 -138 102 -138q107 0 277 203l84 598h174zM783 1374h207l-232 -299h-114zM457 1374h207l-231 -299h-115z" />
    <glyph glyph-name="Ydieresis" unicode="&#x178;" horiz-adv-x="1004" 
d="M1141 1397l-490 -701l-98 -696h-184l98 696l-328 701h195l237 -512l357 512h213zM760 1661q0 39 28 67t66 28t66 -28t28 -67q0 -38 -28 -66t-66 -28t-66 28t-28 66zM393 1661q0 39 28 67t66 28t66 -28t28 -67q0 -38 -28 -66t-66 -28t-66 28t-28 66z" />
    <glyph glyph-name="Zacute" unicode="&#x179;" horiz-adv-x="1194" 
d="M1325 1397l-1018 -1223h828l-25 -174h-1176l1014 1223h-794l24 174h1147zM825 1794h207l-232 -299h-114z" />
    <glyph glyph-name="zacute" unicode="&#x17a;" horiz-adv-x="938" 
d="M915 920l-610 -766h535l-33 -154h-834l600 766h-464l20 154h786zM565 1371h207l-232 -299h-114z" />
    <glyph glyph-name="Zdot" unicode="&#x17b;" horiz-adv-x="1194" 
d="M1325 1397l-1018 -1223h828l-25 -174h-1176l1014 1223h-794l24 174h1147zM680 1587q0 49 35 84t84 35q48 0 83 -35t35 -84t-35 -84t-83 -35q-49 0 -84 35t-35 84z" />
    <glyph glyph-name="zdot" unicode="&#x17c;" horiz-adv-x="938" 
d="M915 920l-610 -766h535l-33 -154h-834l600 766h-464l20 154h786zM461 1212q0 49 35 84t84 35q48 0 83 -35t35 -84t-35 -84t-83 -35q-49 0 -84 35t-35 84z" />
    <glyph glyph-name="Zcaron" unicode="&#x17d;" horiz-adv-x="1194" 
d="M1325 1397l-1018 -1223h828l-25 -174h-1176l1014 1223h-794l24 174h1147zM629 1516l-153 303h84l170 -203l274 203h96l-268 -303h-203z" />
    <glyph glyph-name="zcaron" unicode="&#x17e;" horiz-adv-x="938" 
d="M915 920l-610 -766h535l-33 -154h-834l600 766h-464l20 154h786zM442 1069l-153 303h84l170 -203l274 203h96l-268 -303h-203z" />
    <glyph glyph-name="florin" unicode="&#x192;" horiz-adv-x="1130" 
d="M47 -406l35 156q98 -22 154 -22q98 0 118 120l185 1074h-201l22 139h203l29 174q43 258 287 258q76 0 206 -39l-34 -154q-99 25 -160 25q-56 0 -82 -32t-43 -128l-18 -104h202l-24 -139h-205l-191 -1092q-24 -142 -83.5 -201t-182.5 -59q-95 0 -217 24z" />
    <glyph glyph-name="circumflex" unicode="&#x2c6;" horiz-adv-x="682" 
d="M590 1372l153 -303h-84l-170 203l-274 -203h-96l268 303h203z" />
    <glyph glyph-name="caron" unicode="&#x2c7;" horiz-adv-x="682" 
d="M313 1069l-153 303h84l170 -203l274 203h96l-268 -303h-203z" />
    <glyph glyph-name="macron" unicode="&#x2c9;" horiz-adv-x="682" 
d="M774 1300l-18 -131h-660l19 131h659z" />
    <glyph glyph-name="breve" unicode="&#x2d8;" horiz-adv-x="682" 
d="M637 1350h100q-79 -263 -289 -263q-105 0 -170 75t-59 188h96q3 -61 42.5 -96t99.5 -35q108 0 180 131z" />
    <glyph glyph-name="dotaccent" unicode="&#x2d9;" horiz-adv-x="682" 
d="M356 1239q0 49 35 84t84 35q48 0 83 -35t35 -84t-35 -84t-83 -35q-49 0 -84 35t-35 84z" />
    <glyph glyph-name="ring" unicode="&#x2da;" horiz-adv-x="682" 
d="M256 1223q0 79 56.5 135.5t136.5 56.5q79 0 135.5 -56.5t56.5 -135.5q0 -80 -56.5 -136.5t-135.5 -56.5q-80 0 -136.5 56.5t-56.5 136.5zM561 1219q0 45 -33.5 78.5t-78.5 33.5q-46 0 -79.5 -33.5t-33.5 -78.5q0 -46 33.5 -79.5t79.5 -33.5q45 0 78.5 33.5t33.5 79.5z
" />
    <glyph glyph-name="ogonek" unicode="&#x2db;" horiz-adv-x="682" 
d="M451 -227l-21 -140q-61 -16 -127 -16q-94 0 -159.5 56t-65.5 134q0 86 76 207h157q-59 -103 -59 -151q0 -43 35 -73t86 -30q31 0 78 13z" />
    <glyph glyph-name="tilde" unicode="&#x2dc;" horiz-adv-x="682" 
d="M672 1335h80q0 -99 -46.5 -166t-121.5 -67q-28 0 -138 39t-145 39q-61 0 -70 -76h-81q2 111 46.5 172t118.5 61q39 0 146 -38.5t141 -38.5q59 0 70 75z" />
    <glyph glyph-name="hungarumlaut" unicode="&#x2dd;" horiz-adv-x="682" 
d="M639 1372h207l-232 -299h-114zM313 1372h207l-231 -299h-115z" />
    <glyph glyph-name="pi1" unicode="&#x3c0;" horiz-adv-x="1124" 
d="M126 914l44 149h1061l-48 -150h-120l-281 -913h-201l280 913l-378 1l-280 -914h-203l282 914h-156z" />
    <glyph glyph-name="endash" unicode="&#x2013;" horiz-adv-x="1024" 
d="M1042 584v-131h-1060v131h1060z" />
    <glyph glyph-name="emdash" unicode="&#x2014;" horiz-adv-x="2048" 
d="M2066 584v-131h-2084v131h2084z" />
    <glyph glyph-name="quoteleft" unicode="&#x2018;" horiz-adv-x="406" 
d="M483 1413l-12 -90q-135 -44 -135 -176q80 -35 80 -105q0 -53 -36 -86.5t-93 -33.5q-55 0 -92 46t-37 115q0 114 87 204.5t238 125.5z" />
    <glyph glyph-name="quoteright" unicode="&#x2019;" horiz-adv-x="406" 
d="M123 924l12 90q135 44 135 176q-80 35 -80 104q0 54 36.5 87.5t92.5 33.5q55 0 92.5 -46t37.5 -116q0 -113 -87.5 -204t-238.5 -125z" />
    <glyph glyph-name="quotesinglbase" unicode="&#x201a;" horiz-adv-x="406" 
d="M-49 -295l12 90q135 44 135 176q-80 36 -80 105q0 53 36.5 87t92.5 34q55 0 92 -46.5t37 -115.5q0 -113 -87 -204t-238 -126z" />
    <glyph glyph-name="quotedblleft" unicode="&#x201c;" horiz-adv-x="831" 
d="M899 1413l-12 -90q-135 -44 -135 -176q79 -35 79 -105q0 -53 -36 -86.5t-93 -33.5q-54 0 -91.5 46t-37.5 115q0 114 87.5 204.5t238.5 125.5zM459 1413l-13 -90q-135 -44 -135 -176q80 -35 80 -105q0 -53 -36 -86.5t-93 -33.5q-55 0 -92 46t-37 115q0 114 87 204.5
t239 125.5z" />
    <glyph glyph-name="quotedblright" unicode="&#x201d;" horiz-adv-x="831" 
d="M567 924l13 90q135 44 135 176q-80 35 -80 104q0 54 36 87.5t93 33.5q55 0 92 -46t37 -116q0 -113 -87 -204t-239 -125zM127 924l12 90q135 44 135 176q-79 35 -79 104q0 54 36 87.5t93 33.5q54 0 91.5 -46t37.5 -116q0 -113 -87.5 -204t-238.5 -125z" />
    <glyph glyph-name="quotedblbase" unicode="&#x201e;" horiz-adv-x="831" 
d="M391 -295l12 90q136 44 136 176q-80 36 -80 105q0 53 36 87t93 34q55 0 92 -46.5t37 -115.5q0 -113 -87 -204t-239 -126zM-49 -295l12 90q135 44 135 176q-80 36 -80 105q0 53 36.5 87t92.5 34q55 0 92 -46.5t37 -115.5q0 -113 -87 -204t-238 -126z" />
    <glyph glyph-name="dagger" unicode="&#x2020;" horiz-adv-x="981" 
d="M502 829q-10 132 -10 265q0 321 129 321q73 0 73 -135q0 -155 -135 -451q167 60 287 60q53 0 86 -24t33 -62q0 -33 -37.5 -57.5t-89.5 -24.5q-97 0 -279 59q-2 -225 -27.5 -579t-62 -513t-115.5 -159q-86 0 -86 143q0 260 234 1108q-175 -59 -277 -59q-55 0 -89 24
t-34 62q0 34 38 57t98 23q86 0 264 -58z" />
    <glyph glyph-name="daggerdbl" unicode="&#x2021;" horiz-adv-x="938" 
d="M547 829q-9 -108 -9 -184l3 -121q0 -78 -41 -199t-62 -214q172 59 264 59q115 0 115 -86q0 -84 -131 -84q-86 0 -248 63q8 -108 8 -251q0 -283 -116 -283q-86 0 -86 111q0 125 141 423q-153 -63 -246 -63q-149 0 -149 80q0 39 39 64.5t102 25.5q94 0 254 -57q6 75 6 151
l-4 180q0 52 42 166t65 219q-152 -51 -254 -51q-129 0 -129 78q0 41 35.5 66.5t93.5 25.5q95 0 254 -67q-9 94 -9 262q0 272 119 272q82 0 82 -110q0 -129 -139 -420l4 -4q131 67 262 67q125 0 125 -84q0 -86 -137 -86q-110 0 -254 51z" />
    <glyph glyph-name="bullet" unicode="&#x2022;" horiz-adv-x="725" 
d="M393 952q104 0 179 -75t75 -179t-75 -179t-179 -75t-179 75t-75 179t75 179t179 75z" />
    <glyph glyph-name="ellipsis" unicode="&#x2026;" horiz-adv-x="2048" 
d="M1524 104q0 51 35.5 87t87.5 36q50 0 85 -36t35 -87q0 -50 -35 -86t-85 -36q-52 0 -87.5 35.5t-35.5 86.5zM840 104q0 51 36 87t87 36q50 0 86 -36t36 -87q0 -50 -36 -86t-86 -36q-51 0 -87 36t-36 86zM158 102q0 51 35 86t86 35q50 0 86 -35t36 -86q0 -50 -36 -85
t-86 -35q-51 0 -86 35t-35 85z" />
    <glyph glyph-name="perthousand" unicode="&#x2030;" horiz-adv-x="2068" 
d="M369 1415q128 0 219.5 -90.5t91.5 -220.5q0 -125 -93 -218t-218 -93q-129 0 -220.5 92.5t-91.5 218.5q0 131 90 221t222 90zM369 942q67 0 114 48t47 114q0 68 -47.5 115t-113.5 47q-69 0 -115.5 -46.5t-46.5 -115.5q0 -63 49 -112.5t113 -49.5zM1231 1415l-918 -1433
h-155l919 1433h154zM1749 606q128 0 219.5 -90.5t91.5 -220.5q0 -125 -93 -218t-218 -93q-129 0 -220 92.5t-91 218.5q0 131 89.5 221t221.5 90zM1749 133q67 0 114.5 48t47.5 114q0 68 -47.5 115t-114.5 47q-68 0 -115 -46.5t-47 -115.5q0 -63 49 -112.5t113 -49.5z
M1020 606q128 0 219.5 -90.5t91.5 -220.5q0 -125 -93 -218t-218 -93q-129 0 -220 92.5t-91 218.5q0 131 89.5 221t221.5 90zM1020 133q67 0 114.5 48t47.5 114q0 68 -47.5 115t-114.5 47q-68 0 -115 -46.5t-47 -115.5q0 -63 49 -112.5t113 -49.5z" />
    <glyph glyph-name="guilsinglleft" unicode="&#x2039;" horiz-adv-x="469" 
d="M502 920l-355 -482l172 -438h-139l-180 459l344 461h158z" />
    <glyph glyph-name="guilsinglright" unicode="&#x203a;" horiz-adv-x="469" 
d="M-74 0l355 481l-172 439h139l180 -459l-344 -461h-158z" />
    <glyph glyph-name="fraction1" unicode="&#x2044;" horiz-adv-x="427" 
d="M839 1416l-1109 -1471h-142l1112 1471h139z" />
    <glyph glyph-name="Euro" unicode="&#x20ac;" horiz-adv-x="1178" 
d="M459 901h577l-28 -147h-598q-10 -59 -17 -109h594l-29 -147h-565q11 -160 84.5 -250t200.5 -90q182 0 391 135l-27 -215q-191 -96 -378 -96q-179 0 -312.5 127.5t-150.5 388.5h-150l29 147h121q4 60 14 109h-164l29 147h178q97 252 305.5 383t462.5 131q90 0 209 -20
l-33 -178q-112 22 -190 22q-184 0 -330.5 -87.5t-222.5 -250.5z" />
    <glyph glyph-name="trademark" unicode="&#x2122;" horiz-adv-x="2048" 
d="M408 651v695h-265v120h666v-120h-266v-695h-135zM901 651v815h201l207 -651l196 651h197v-815h-125l2 684l-211 -684h-123l-219 695v-695h-125z" />
    <glyph glyph-name="Ohm" unicode="&#x2126;" horiz-adv-x="1573" 
d="M496 160q-108 67 -165 130q-87 96 -134 225.5t-47 286.5q0 196 79.5 360.5t231 252.5t347.5 88q336 0 516 -254q131 -186 131 -448q0 -168 -54 -297.5t-141 -222.5q-53 -58 -149 -121l364 6v-166h-575v177q80 40 124 78q72 61 122 145t75.5 179t25.5 198
q0 138 -49.5 277.5t-150 212.5t-243.5 73q-191 0 -296 -120q-146 -169 -146 -440q0 -217 91 -372.5t251 -227.5v-180h-577v168z" />
    <glyph glyph-name="partialdiff" unicode="&#x2202;" horiz-adv-x="1012" 
d="M422 1138l-135 60q70 157 168 225t192 68q76 0 137.5 -39.5t92.5 -90.5q47 -79 69.5 -187t22.5 -248q0 -288 -86.5 -512.5t-233.5 -331.5t-289 -107q-137 0 -222.5 91t-85.5 256q0 226 153 387q197 207 649 215q-4 168 -24 256t-68 135.5t-113 47.5q-62 0 -121 -49.5
t-106 -175.5zM850 796q-244 -14 -357.5 -68t-187 -176.5t-73.5 -248.5q0 -83 51 -137t119 -54q75 0 160 55q117 76 190.5 234.5t97.5 394.5z" />
    <glyph glyph-name="increment" unicode="&#x2206;" horiz-adv-x="1253" 
d="M668 1409l577 -1409h-1233zM594 1059l-447 -959h844z" />
    <glyph glyph-name="product" unicode="&#x220f;" horiz-adv-x="1686" 
d="M161 1491h1362v-1922h-191v1748h-978v-1748h-193v1922z" />
    <glyph glyph-name="summation" unicode="&#x2211;" horiz-adv-x="1460" 
d="M139 1491h1237v-164h-988l607 -775l-649 -822h1040v-161h-1264v187l620 788l-603 772v175z" />
    <glyph glyph-name="fraction" unicode="&#x2215;" horiz-adv-x="426" 
d="M840 1415l-1110 -1470h-142l1112 1470h140z" />
    <glyph glyph-name="periodcentered" unicode="&#x2219;" horiz-adv-x="532" 
d="M184 709q0 50 37.5 86t87.5 36q51 0 87 -36t36 -86q0 -51 -36.5 -88t-86.5 -37t-87.5 37t-37.5 88z" />
    <glyph glyph-name="radical" unicode="&#x221a;" horiz-adv-x="1124" 
d="M1055 1868l-307 -1946l-498 1028l-197 -96l-33 68l299 147l404 -825l260 1634z" />
    <glyph glyph-name="infinity" unicode="&#x221e;" horiz-adv-x="1460" 
d="M689 812q105 132 164 174q80 58 169 58q105 0 196.5 -76t91.5 -245q0 -118 -34 -185.5t-106 -108.5t-148 -41q-89 0 -169 57q-59 43 -164 175q-136 -171 -289 -171q-101 0 -173.5 76.5t-72.5 190.5q0 113 72.5 190t173.5 77q153 0 289 -171zM758 717q87 -135 159 -185
q46 -33 103 -33q76 0 127.5 56t51.5 158q0 106 -52.5 162t-130.5 56q-49 0 -92 -28q-58 -39 -166 -186zM620 716q-80 100 -128 128.5t-92 28.5q-58 0 -96.5 -41t-38.5 -113q0 -71 40 -113.5t97 -42.5q101 0 218 153z" />
    <glyph glyph-name="integral" unicode="&#x222b;" horiz-adv-x="561" 
d="M602 1760q0 -39 -29.5 -64t-75.5 -25q-37 0 -60 25t-44 25q-18 0 -27.5 -14.5t-9.5 -43.5q0 -34 19.5 -256t19.5 -551q0 -505 -30 -709.5t-79 -282.5q-26 -41 -67.5 -62t-85.5 -21q-49 0 -86 35t-37 85q0 38 25.5 65t64.5 27q34 0 65.5 -33t44.5 -33q25 0 39.5 44.5
t14.5 153.5q0 37 -6 197t-6 562q0 481 17 638.5t41 215.5q29 70 69 104t84 34q57 0 98 -32.5t41 -83.5z" />
    <glyph glyph-name="approxequal" unicode="&#x2248;" horiz-adv-x="1196" 
d="M80 610v169q157 132 305 132q86 0 258 -78t246 -78q117 0 287 137v-170q-156 -131 -299 -131q-84 0 -258.5 78t-247.5 78q-117 0 -291 -137zM80 248v169q157 132 305 132q86 0 258 -78t246 -78q117 0 287 137v-170q-156 -131 -299 -131q-84 0 -258.5 78t-247.5 78
q-117 0 -291 -137z" />
    <glyph glyph-name="notequal" unicode="&#x2260;" horiz-adv-x="1195" 
d="M415 417h-301v168h367l109 277h-476v168h542l209 535h125l-209 -535h301v-168h-366l-109 -277h475v-168h-540l-209 -536h-127z" />
    <glyph glyph-name="lessequal" unicode="&#x2264;" horiz-adv-x="1195" 
d="M114 762v168l968 410v-180l-768 -315l768 -319v-179zM1082 106h-968v167h968v-167z" />
    <glyph glyph-name="greaterequal" unicode="&#x2265;" horiz-adv-x="1195" 
d="M1082 762l-968 -415v179l768 319l-768 315v180l968 -410v-168zM1082 106h-968v167h968v-167z" />
    <glyph glyph-name="lozenge" unicode="&#x25ca;" horiz-adv-x="1012" 
d="M962 763l-397 -763h-122l-397 763l397 763h122zM839 763l-335 652l-335 -652l335 -652z" />
    <glyph glyph-name="fi1" unicode="&#xf001;" horiz-adv-x="981" 
d="M612 920l-22 -154h-195l-172 -1153h-170l170 1153h-135l23 154h133q33 258 132.5 376.5t285.5 118.5q131 0 213.5 -71t82.5 -189h-165q-24 111 -138 111q-109 0 -159.5 -70t-79.5 -276h196zM930 920l-135 -920h-174l135 920h174z" />
    <glyph glyph-name="fl1" unicode="&#xf002;" horiz-adv-x="981" 
d="M618 920l-28 -154h-193l-174 -1153h-170l170 1153h-133l23 154h131q33 254 128 374.5t277 120.5q58 0 101 -18l-21 -142q-35 11 -78 11q-203 0 -233 -346h200zM999 1397l-206 -1397h-175l207 1397h174z" />
    <glyph glyph-name="fi" unicode="&#xfb01;" horiz-adv-x="981" 
d="M612 920l-22 -154h-195l-172 -1153h-170l170 1153h-135l23 154h133q33 258 132.5 376.5t285.5 118.5q131 0 213.5 -71t82.5 -189h-165q-24 111 -138 111q-109 0 -159.5 -70t-79.5 -276h196zM930 920l-135 -920h-174l135 920h174z" />
    <glyph glyph-name="fl" unicode="&#xfb02;" horiz-adv-x="981" 
d="M618 920l-28 -154h-193l-174 -1153h-170l170 1153h-133l23 154h131q33 254 128 374.5t277 120.5q58 0 101 -18l-21 -142q-35 11 -78 11q-203 0 -233 -346h200zM999 1397l-206 -1397h-175l207 1397h174z" />
    <glyph glyph-name="foursuperior" horiz-adv-x="662" 
d="M637 1417l-76 -428h119l-12 -88h-123l-41 -221h-129l43 221h-309v47l444 469h84zM287 989h147l50 211z" />
    <glyph glyph-name="commaaccent" horiz-adv-x="683" 
d="M78 -483q135 44 135 176q-81 34 -81 108q0 53 37.5 87t87.5 34q60 0 97 -46t37 -116q0 -109 -83.5 -203.5t-242.5 -130.5z" />
    <hkern u1="&#x20;" u2="&#x201c;" k="205" />
    <hkern u1="&#x20;" u2="&#x2018;" k="205" />
    <hkern u1="&#x20;" u2="Y" k="358" />
    <hkern u1="&#x20;" u2="W" k="307" />
    <hkern u1="&#x20;" u2="V" k="307" />
    <hkern u1="&#x20;" u2="T" k="307" />
    <hkern u1="&#x20;" u2="A" k="164" />
    <hkern u1="&#x2c;" u2="&#x201d;" k="164" />
    <hkern u1="&#x2c;" u2="&#x2019;" k="164" />
    <hkern u1="&#x2c;" u2="&#x20;" k="205" />
    <hkern u1="&#x2e;" u2="&#x201d;" k="164" />
    <hkern u1="&#x2e;" u2="&#x2019;" k="164" />
    <hkern u1="&#x2e;" u2="&#x20;" k="205" />
    <hkern u1="&#x3a;" u2="&#x20;" k="205" />
    <hkern u1="&#x3b;" u2="&#x20;" k="205" />
    <hkern u1="A" u2="v" k="20" />
    <hkern u1="A" u2="Y" k="205" />
    <hkern u1="A" u2="W" k="123" />
    <hkern u1="A" u2="V" k="123" />
    <hkern u1="A" u2="U" k="82" />
    <hkern u1="A" u2="T" k="205" />
    <hkern u1="A" u2="Q" k="61" />
    <hkern u1="A" u2="O" k="61" />
    <hkern u1="A" u2="G" k="61" />
    <hkern u1="A" u2="C" k="82" />
    <hkern u1="B" u2="A" k="-113" />
    <hkern u1="B" u2="&#x2e;" k="-61" />
    <hkern u1="B" u2="&#x2c;" k="-61" />
    <hkern u1="C" u2="A" k="-123" />
    <hkern u1="C" u2="&#x2e;" k="-102" />
    <hkern u1="C" u2="&#x2c;" k="-102" />
    <hkern u1="D" u2="Y" k="205" />
    <hkern u1="D" u2="W" k="143" />
    <hkern u1="D" u2="V" k="102" />
    <hkern u1="D" u2="&#x2e;" k="51" />
    <hkern u1="D" u2="&#x2c;" k="51" />
    <hkern u1="F" u2="r" k="31" />
    <hkern u1="F" u2="o" k="31" />
    <hkern u1="F" u2="e" k="31" />
    <hkern u1="F" u2="a" k="82" />
    <hkern u1="F" u2="&#x2e;" k="205" />
    <hkern u1="F" u2="&#x2c;" k="205" />
    <hkern u1="G" u2="&#x2e;" k="-41" />
    <hkern u1="G" u2="&#x2c;" k="-41" />
    <hkern u1="J" u2="A" k="-51" />
    <hkern u1="K" u2="y" k="61" />
    <hkern u1="K" u2="u" k="31" />
    <hkern u1="K" u2="o" k="72" />
    <hkern u1="K" u2="e" k="113" />
    <hkern u1="K" u2="O" k="82" />
    <hkern u1="L" u2="&#x201d;" k="102" />
    <hkern u1="L" u2="&#x2019;" k="102" />
    <hkern u1="L" u2="Y" k="123" />
    <hkern u1="L" u2="W" k="154" />
    <hkern u1="L" u2="V" k="82" />
    <hkern u1="L" u2="T" k="143" />
    <hkern u1="N" u2="A" k="-41" />
    <hkern u1="O" u2="Y" k="184" />
    <hkern u1="O" u2="X" k="143" />
    <hkern u1="O" u2="W" k="102" />
    <hkern u1="O" u2="V" k="82" />
    <hkern u1="O" u2="T" k="164" />
    <hkern u1="O" u2="A" k="20" />
    <hkern u1="O" u2="&#x2e;" k="61" />
    <hkern u1="O" u2="&#x2c;" k="61" />
    <hkern u1="P" u2="o" k="41" />
    <hkern u1="P" u2="e" k="41" />
    <hkern u1="P" u2="a" k="72" />
    <hkern u1="P" u2="A" k="61" />
    <hkern u1="P" u2="&#x2e;" k="205" />
    <hkern u1="P" u2="&#x2c;" k="205" />
    <hkern u1="Q" u2="U" k="61" />
    <hkern u1="Q" u2="&#x2e;" k="-61" />
    <hkern u1="Q" u2="&#x2c;" k="-61" />
    <hkern u1="R" u2="Y" k="154" />
    <hkern u1="R" u2="W" k="123" />
    <hkern u1="R" u2="V" k="61" />
    <hkern u1="R" u2="T" k="143" />
    <hkern u1="R" u2="O" k="41" />
    <hkern u1="S" u2="&#x2e;" k="-51" />
    <hkern u1="S" u2="&#x2c;" k="-51" />
    <hkern u1="T" u2="y" k="164" />
    <hkern u1="T" u2="w" k="205" />
    <hkern u1="T" u2="u" k="205" />
    <hkern u1="T" u2="r" k="205" />
    <hkern u1="T" u2="o" k="205" />
    <hkern u1="T" u2="e" k="205" />
    <hkern u1="T" u2="a" k="225" />
    <hkern u1="T" u2="O" k="102" />
    <hkern u1="T" u2="A" k="123" />
    <hkern u1="T" u2="&#x3b;" k="51" />
    <hkern u1="T" u2="&#x3a;" k="51" />
    <hkern u1="T" u2="&#x2e;" k="205" />
    <hkern u1="T" u2="&#x2d;" k="246" />
    <hkern u1="T" u2="&#x2c;" k="205" />
    <hkern u1="U" u2="&#x2e;" k="31" />
    <hkern u1="U" u2="&#x2c;" k="31" />
    <hkern u1="V" u2="u" k="133" />
    <hkern u1="V" u2="o" k="164" />
    <hkern u1="V" u2="e" k="164" />
    <hkern u1="V" u2="a" k="164" />
    <hkern u1="V" u2="O" k="41" />
    <hkern u1="V" u2="A" k="61" />
    <hkern u1="V" u2="&#x2e;" k="164" />
    <hkern u1="V" u2="&#x2d;" k="164" />
    <hkern u1="V" u2="&#x2c;" k="164" />
    <hkern u1="W" u2="u" k="113" />
    <hkern u1="W" u2="o" k="154" />
    <hkern u1="W" u2="e" k="154" />
    <hkern u1="W" u2="a" k="164" />
    <hkern u1="W" u2="O" k="41" />
    <hkern u1="W" u2="A" k="41" />
    <hkern u1="W" u2="&#x2e;" k="164" />
    <hkern u1="W" u2="&#x2d;" k="154" />
    <hkern u1="W" u2="&#x2c;" k="164" />
    <hkern u1="Y" u2="u" k="154" />
    <hkern u1="Y" u2="o" k="164" />
    <hkern u1="Y" u2="e" k="164" />
    <hkern u1="Y" u2="a" k="164" />
    <hkern u1="Y" u2="O" k="82" />
    <hkern u1="Y" u2="A" k="61" />
    <hkern u1="Y" u2="&#x2e;" k="164" />
    <hkern u1="Y" u2="&#x2d;" k="184" />
    <hkern u1="Y" u2="&#x2c;" k="164" />
    <hkern u1="b" u2="y" k="31" />
    <hkern u1="b" u2="v" k="41" />
    <hkern u1="c" u2="y" k="-51" />
    <hkern u1="c" u2="l" k="-41" />
    <hkern u1="c" u2="k" k="-41" />
    <hkern u1="c" u2="h" k="-41" />
    <hkern u1="c" u2="&#x2e;" k="-123" />
    <hkern u1="c" u2="&#x2c;" k="-123" />
    <hkern u1="e" u2="w" k="20" />
    <hkern u1="e" u2="v" k="31" />
    <hkern u1="e" u2="&#x2e;" k="-61" />
    <hkern u1="e" u2="&#x2c;" k="-61" />
    <hkern u1="f" u2="&#x201d;" k="-256" />
    <hkern u1="f" u2="&#x2019;" k="-256" />
    <hkern u1="f" u2="o" k="31" />
    <hkern u1="f" u2="i" k="41" />
    <hkern u1="f" u2="e" k="31" />
    <hkern u1="f" u2="a" k="31" />
    <hkern u1="g" u2="o" k="20" />
    <hkern u1="g" u2="e" k="31" />
    <hkern u1="h" u2="y" k="31" />
    <hkern u1="k" u2="y" k="41" />
    <hkern u1="k" u2="o" k="61" />
    <hkern u1="k" u2="e" k="102" />
    <hkern u1="m" u2="y" k="31" />
    <hkern u1="m" u2="u" k="20" />
    <hkern u1="n" u2="v" k="41" />
    <hkern u1="o" u2="y" k="31" />
    <hkern u1="o" u2="x" k="41" />
    <hkern u1="o" u2="w" k="41" />
    <hkern u1="o" u2="v" k="41" />
    <hkern u1="o" u2="g" k="20" />
    <hkern u1="p" u2="y" k="20" />
    <hkern u1="r" u2="y" k="-82" />
    <hkern u1="r" u2="v" k="-61" />
    <hkern u1="r" u2="t" k="-82" />
    <hkern u1="r" u2="s" k="-41" />
    <hkern u1="r" u2="q" k="41" />
    <hkern u1="r" u2="o" k="41" />
    <hkern u1="r" u2="i" k="-41" />
    <hkern u1="r" u2="e" k="20" />
    <hkern u1="r" u2="d" k="41" />
    <hkern u1="r" u2="a" k="41" />
    <hkern u1="r" u2="&#x3b;" k="-82" />
    <hkern u1="r" u2="&#x3a;" k="-82" />
    <hkern u1="r" u2="&#x2e;" k="82" />
    <hkern u1="r" u2="&#x2c;" k="82" />
    <hkern u1="s" u2="w" k="20" />
    <hkern u1="s" u2="&#x2e;" k="-61" />
    <hkern u1="s" u2="&#x2c;" k="-61" />
    <hkern u1="v" u2="&#x2e;" k="41" />
    <hkern u1="v" u2="&#x2c;" k="41" />
    <hkern u1="w" u2="a" k="41" />
    <hkern u1="w" u2="&#x2e;" k="61" />
    <hkern u1="w" u2="&#x2c;" k="61" />
    <hkern u1="x" u2="e" k="82" />
    <hkern u1="y" u2="e" k="41" />
    <hkern u1="y" u2="a" k="41" />
    <hkern u1="y" u2="&#x2e;" k="61" />
    <hkern u1="y" u2="&#x2c;" k="61" />
    <hkern u1="z" u2="o" k="41" />
    <hkern u1="z" u2="e" k="41" />
    <hkern u1="&#x2018;" u2="&#x2018;" k="-31" />
    <hkern u1="&#x2019;" u2="&#x201d;" k="-102" />
    <hkern u1="&#x2019;" u2="&#x2019;" k="-31" />
    <hkern u1="&#x2019;" u2="v" k="51" />
    <hkern u1="&#x2019;" u2="s" k="102" />
    <hkern u1="&#x2019;" u2="r" k="184" />
    <hkern u1="&#x2019;" u2="d" k="205" />
    <hkern u1="&#x2019;" u2="&#x20;" k="205" />
    <hkern u1="&#x201c;" u2="&#x2018;" k="-102" />
    <hkern u1="&#x201d;" u2="&#x20;" k="205" />
  </font>
</defs></svg>
